{
    "ajustes": {},
    "rodadas": [
        {
            "n_rodada": 1,
            "mandante":"Palmeiras",
            "visitante":"Botafogo",
            "gols_mandante": -1,
            "gols_visitante": -1
        },
        {
            "n_rodada": 1,
            "mandante":"Cruzeiro",
            "visitante":"Mirassol",
            "gols_mandante": -1,
            "gols_visitante": -1
        },
        {
            "n_rodada": 1,
            "mandante":"Grêmio",
            "visitante":"Atlético-MG",
            "gols_mandante": -1,
            "gols_visitante": -1
        },
        {
            "n_rodada": 1,
            "mandante":"Bahia",
            "visitante":"Corinthians",
            "gols_mandante": -1,
            "gols_visitante": -1
        },
        {
            "n_rodada": 1,
            "mandante":"Fortaleza",
            "visitante":"Fluminense",
            "gols_mandante": -1,
            "gols_visitante": -1
        },
        {
            "n_rodada": 1,
            "mandante":"Juventude",
            "visitante":"Vitória",
            "gols_mandante": -1,
            "gols_visitante": -1
        },
        {
            "n_rodada": 1,
            "mandante":"Flamengo",
            "visitante":"Internacional",
            "gols_mandante": -1,
            "gols_visitante": -1
        },
        {
            "n_rodada": 1,
            "mandante":"São Paulo",
            "visitante":"Sport",
            "gols_mandante": -1,
            "gols_visitante": -1
        },
        {
            "n_rodada": 1,
            "mandante":"Vasco",
            "visitante":"Santos",
            "gols_mandante": -1,
            "gols_visitante": -1
        },
        {
            "n_rodada": 1,
            "mandante":"Red Bull Bragantino",
            "visitante":"Ceará",
            "gols_mandante": -1,
            "gols_visitante": -1
        },
        {
            "n_rodada": 2,
            "mandante":"Fluminense",
            "visitante":"Red Bull Bragantino",
            "gols_mandante": -1,
            "gols_visitante": -1
        },
        {
            "n_rodada": 2,
            "mandante":"Botafogo",
            "visitante":"Juventude",
            "gols_mandante": -1,
            "gols_visitante": -1
        },
        {
            "n_rodada": 2,
            "mandante":"Corinthians",
            "visitante":"Vasco",
            "gols_mandante": -1,
            "gols_visitante": -1
        },
        {
            "n_rodada": 2,
            "mandante":"Santos",
            "visitante":"Bahia",
            "gols_mandante": -1,
            "gols_visitante": -1
        },
        {
            "n_rodada": 2,
            "mandante":"Mirassol",
            "visitante":"Fortaleza",
            "gols_mandante": -1,
            "gols_visitante": -1
        },
        {
            "n_rodada": 2,
            "mandante":"Atlético-MG",
            "visitante":"São Paulo",
            "gols_mandante": -1,
            "gols_visitante": -1
        },
        {
            "n_rodada": 2,
            "mandante":"Internacional",
            "visitante":"Cruzeiro",
            "gols_mandante": -1,
            "gols_visitante": -1
        },
        {
            "n_rodada": 2,
            "mandante":"Vitória",
            "visitante":"Flamengo",
            "gols_mandante": -1,
            "gols_visitante": -1
        },
        {
            "n_rodada": 2,
            "mandante":"Ceará",
            "visitante":"Grêmio",
            "gols_mandante": -1,
            "gols_visitante": -1
        },
        {
            "n_rodada": 2,
            "mandante":"Sport",
            "visitante":"Palmeiras",
            "gols_mandante": -1,
            "gols_visitante": -1
        },
        {
            "n_rodada": 3,
            "mandante":"",
            "visitante":"",
            "gols_mandante": -1,
            "gols_visitante": -1
        },
        {
            "n_rodada": 3,
            "mandante":"",
            "visitante":"",
            "gols_mandante": -1,
            "gols_visitante": -1
        },
        {
            "n_rodada": 3,
            "mandante":"",
            "visitante":"",
            "gols_mandante": -1,
            "gols_visitante": -1
        },
        {
            "n_rodada": 3,
            "mandante":"",
            "visitante":"",
            "gols_mandante": -1,
            "gols_visitante": -1
        },
        {
            "n_rodada": 3,
            "mandante":"",
            "visitante":"",
            "gols_mandante": -1,
            "gols_visitante": -1
        },
        {
            "n_rodada": 3,
            "mandante":"",
            "visitante":"",
            "gols_mandante": -1,
            "gols_visitante": -1
        },
        {
            "n_rodada": 3,
            "mandante":"",
            "visitante":"",
            "gols_mandante": -1,
            "gols_visitante": -1
        },
        {
            "n_rodada": 3,
            "mandante":"",
            "visitante":"",
            "gols_mandante": -1,
            "gols_visitante": -1
        },
        {
            "n_rodada": 3,
            "mandante":"",
            "visitante":"",
            "gols_mandante": -1,
            "gols_visitante": -1
        },
        {
            "n_rodada": 3,
            "mandante":"",
            "visitante":"",
            "gols_mandante": -1,
            "gols_visitante": -1
        },
        {
            "n_rodada": 4,
            "mandante":"",
            "visitante":"",
            "gols_mandante": -1,
            "gols_visitante": -1
        },
        {
            "n_rodada": 4,
            "mandante":"",
            "visitante":"",
            "gols_mandante": -1,
            "gols_visitante": -1
        },
        {
            "n_rodada": 4,
            "mandante":"",
            "visitante":"",
            "gols_mandante": -1,
            "gols_visitante": -1
        },
        {
            "n_rodada": 4,
            "mandante":"",
            "visitante":"",
            "gols_mandante": -1,
            "gols_visitante": -1
        },
        {
            "n_rodada": 4,
            "mandante":"",
            "visitante":"",
            "gols_mandante": -1,
            "gols_visitante": -1
        },
        {
            "n_rodada": 4,
            "mandante":"",
            "visitante":"",
            "gols_mandante": -1,
            "gols_visitante": -1
        },
        {
            "n_rodada": 4,
            "mandante":"",
            "visitante":"",
            "gols_mandante": -1,
            "gols_visitante": -1
        },
        {
            "n_rodada": 4,
            "mandante":"",
            "visitante":"",
            "gols_mandante": -1,
            "gols_visitante": -1
        },
        {
            "n_rodada": 4,
            "mandante":"",
            "visitante":"",
            "gols_mandante": -1,
            "gols_visitante": -1
        },
        {
            "n_rodada": 4,
            "mandante":"",
            "visitante":"",
            "gols_mandante": -1,
            "gols_visitante": -1
        },
        {
            "n_rodada": 5,
            "mandante":"",
            "visitante":"",
            "gols_mandante": -1,
            "gols_visitante": -1
        },
        {
            "n_rodada": 5,
            "mandante":"",
            "visitante":"",
            "gols_mandante": -1,
            "gols_visitante": -1
        },
        {
            "n_rodada": 5,
            "mandante":"",
            "visitante":"",
            "gols_mandante": -1,
            "gols_visitante": -1
        },
        {
            "n_rodada": 5,
            "mandante":"",
            "visitante":"",
            "gols_mandante": -1,
            "gols_visitante": -1
        },
        {
            "n_rodada": 5,
            "mandante":"",
            "visitante":"",
            "gols_mandante": -1,
            "gols_visitante": -1
        },
        {
            "n_rodada": 5,
            "mandante":"",
            "visitante":"",
            "gols_mandante": -1,
            "gols_visitante": -1
        },
        {
            "n_rodada": 5,
            "mandante":"",
            "visitante":"",
            "gols_mandante": -1,
            "gols_visitante": -1
        },
        {
            "n_rodada": 5,
            "mandante":"",
            "visitante":"",
            "gols_mandante": -1,
            "gols_visitante": -1
        },
        {
            "n_rodada": 5,
            "mandante":"",
            "visitante":"",
            "gols_mandante": -1,
            "gols_visitante": -1
        },
        {
            "n_rodada": 5,
            "mandante":"",
            "visitante":"",
            "gols_mandante": -1,
            "gols_visitante": -1
        },
        {
            "n_rodada": 6,
            "mandante":"",
            "visitante":"",
            "gols_mandante": -1,
            "gols_visitante": -1
        },
        {
            "n_rodada": 6,
            "mandante":"",
            "visitante":"",
            "gols_mandante": -1,
            "gols_visitante": -1
        },
        {
            "n_rodada": 6,
            "mandante":"",
            "visitante":"",
            "gols_mandante": -1,
            "gols_visitante": -1
        },
        {
            "n_rodada": 6,
            "mandante":"",
            "visitante":"",
            "gols_mandante": -1,
            "gols_visitante": -1
        },
        {
            "n_rodada": 6,
            "mandante":"",
            "visitante":"",
            "gols_mandante": -1,
            "gols_visitante": -1
        },
        {
            "n_rodada": 6,
            "mandante":"",
            "visitante":"",
            "gols_mandante": -1,
            "gols_visitante": -1
        },
        {
            "n_rodada": 6,
            "mandante":"",
            "visitante":"",
            "gols_mandante": -1,
            "gols_visitante": -1
        },
        {
            "n_rodada": 6,
            "mandante":"",
            "visitante":"",
            "gols_mandante": -1,
            "gols_visitante": -1
        },
        {
            "n_rodada": 6,
            "mandante":"",
            "visitante":"",
            "gols_mandante": -1,
            "gols_visitante": -1
        },
        {
            "n_rodada": 6,
            "mandante":"",
            "visitante":"",
            "gols_mandante": -1,
            "gols_visitante": -1
        },
        {
            "n_rodada": 7,
            "mandante":"",
            "visitante":"",
            "gols_mandante": -1,
            "gols_visitante": -1
        },
        {
            "n_rodada": 7,
            "mandante":"",
            "visitante":"",
            "gols_mandante": -1,
            "gols_visitante": -1
        },
        {
            "n_rodada": 7,
            "mandante":"",
            "visitante":"",
            "gols_mandante": -1,
            "gols_visitante": -1
        },
        {
            "n_rodada": 7,
            "mandante":"",
            "visitante":"",
            "gols_mandante": -1,
            "gols_visitante": -1
        },
        {
            "n_rodada": 7,
            "mandante":"",
            "visitante":"",
            "gols_mandante": -1,
            "gols_visitante": -1
        },
        {
            "n_rodada": 7,
            "mandante":"",
            "visitante":"",
            "gols_mandante": -1,
            "gols_visitante": -1
        },
        {
            "n_rodada": 7,
            "mandante":"",
            "visitante":"",
            "gols_mandante": -1,
            "gols_visitante": -1
        },
        {
            "n_rodada": 7,
            "mandante":"",
            "visitante":"",
            "gols_mandante": -1,
            "gols_visitante": -1
        },
        {
            "n_rodada": 7,
            "mandante":"",
            "visitante":"",
            "gols_mandante": -1,
            "gols_visitante": -1
        },
        {
            "n_rodada": 7,
            "mandante":"",
            "visitante":"",
            "gols_mandante": -1,
            "gols_visitante": -1
        },
        {
            "n_rodada": 8,
            "mandante":"",
            "visitante":"",
            "gols_mandante": -1,
            "gols_visitante": -1
        },
        {
            "n_rodada": 8,
            "mandante":"",
            "visitante":"",
            "gols_mandante": -1,
            "gols_visitante": -1
        },
        {
            "n_rodada": 8,
            "mandante":"",
            "visitante":"",
            "gols_mandante": -1,
            "gols_visitante": -1
        },
        {
            "n_rodada": 8,
            "mandante":"",
            "visitante":"",
            "gols_mandante": -1,
            "gols_visitante": -1
        },
        {
            "n_rodada": 8,
            "mandante":"",
            "visitante":"",
            "gols_mandante": -1,
            "gols_visitante": -1
        },
        {
            "n_rodada": 8,
            "mandante":"",
            "visitante":"",
            "gols_mandante": -1,
            "gols_visitante": -1
        },
        {
            "n_rodada": 8,
            "mandante":"",
            "visitante":"",
            "gols_mandante": -1,
            "gols_visitante": -1
        },
        {
            "n_rodada": 8,
            "mandante":"",
            "visitante":"",
            "gols_mandante": -1,
            "gols_visitante": -1
        },
        {
            "n_rodada": 8,
            "mandante":"",
            "visitante":"",
            "gols_mandante": -1,
            "gols_visitante": -1
        },
        {
            "n_rodada": 8,
            "mandante":"",
            "visitante":"",
            "gols_mandante": -1,
            "gols_visitante": -1
        },
        {
            "n_rodada": 9,
            "mandante":"",
            "visitante":"",
            "gols_mandante": -1,
            "gols_visitante": -1
        },
        {
            "n_rodada": 9,
            "mandante":"",
            "visitante":"",
            "gols_mandante": -1,
            "gols_visitante": -1
        },
        {
            "n_rodada": 9,
            "mandante":"",
            "visitante":"",
            "gols_mandante": -1,
            "gols_visitante": -1
        },
        {
            "n_rodada": 9,
            "mandante":"",
            "visitante":"",
            "gols_mandante": -1,
            "gols_visitante": -1
        },
        {
            "n_rodada": 9,
            "mandante":"",
            "visitante":"",
            "gols_mandante": -1,
            "gols_visitante": -1
        },
        {
            "n_rodada": 9,
            "mandante":"",
            "visitante":"",
            "gols_mandante": -1,
            "gols_visitante": -1
        },
        {
            "n_rodada": 9,
            "mandante":"",
            "visitante":"",
            "gols_mandante": -1,
            "gols_visitante": -1
        },
        {
            "n_rodada": 9,
            "mandante":"",
            "visitante":"",
            "gols_mandante": -1,
            "gols_visitante": -1
        },
        {
            "n_rodada": 9,
            "mandante":"",
            "visitante":"",
            "gols_mandante": -1,
            "gols_visitante": -1
        },
        {
            "n_rodada": 9,
            "mandante":"",
            "visitante":"",
            "gols_mandante": -1,
            "gols_visitante": -1
        },
        {
            "n_rodada": 10,
            "mandante":"",
            "visitante":"",
            "gols_mandante": -1,
            "gols_visitante": -1
        },
        {
            "n_rodada": 10,
            "mandante":"",
            "visitante":"",
            "gols_mandante": -1,
            "gols_visitante": -1
        },
        {
            "n_rodada": 10,
            "mandante":"",
            "visitante":"",
            "gols_mandante": -1,
            "gols_visitante": -1
        },
        {
            "n_rodada": 10,
            "mandante":"",
            "visitante":"",
            "gols_mandante": -1,
            "gols_visitante": -1
        },
        {
            "n_rodada": 10,
            "mandante":"",
            "visitante":"",
            "gols_mandante": -1,
            "gols_visitante": -1
        },
        {
            "n_rodada": 10,
            "mandante":"",
            "visitante":"",
            "gols_mandante": -1,
            "gols_visitante": -1
        },
        {
            "n_rodada": 10,
            "mandante":"",
            "visitante":"",
            "gols_mandante": -1,
            "gols_visitante": -1
        },
        {
            "n_rodada": 10,
            "mandante":"",
            "visitante":"",
            "gols_mandante": -1,
            "gols_visitante": -1
        },
        {
            "n_rodada": 10,
            "mandante":"",
            "visitante":"",
            "gols_mandante": -1,
            "gols_visitante": -1
        },
        {
            "n_rodada": 10,
            "mandante":"",
            "visitante":"",
            "gols_mandante": -1,
            "gols_visitante": -1
        },
        {
            "n_rodada": 11,
            "mandante":"",
            "visitante":"",
            "gols_mandante": -1,
            "gols_visitante": -1
        },
        {
            "n_rodada": 11,
            "mandante":"",
            "visitante":"",
            "gols_mandante": -1,
            "gols_visitante": -1
        },
        {
            "n_rodada": 11,
            "mandante":"",
            "visitante":"",
            "gols_mandante": -1,
            "gols_visitante": -1
        },
        {
            "n_rodada": 11,
            "mandante":"",
            "visitante":"",
            "gols_mandante": -1,
            "gols_visitante": -1
        },
        {
            "n_rodada": 11,
            "mandante":"",
            "visitante":"",
            "gols_mandante": -1,
            "gols_visitante": -1
        },
        {
            "n_rodada": 11,
            "mandante":"",
            "visitante":"",
            "gols_mandante": -1,
            "gols_visitante": -1
        },
        {
            "n_rodada": 11,
            "mandante":"",
            "visitante":"",
            "gols_mandante": -1,
            "gols_visitante": -1
        },
        {
            "n_rodada": 11,
            "mandante":"",
            "visitante":"",
            "gols_mandante": -1,
            "gols_visitante": -1
        },
        {
            "n_rodada": 11,
            "mandante":"",
            "visitante":"",
            "gols_mandante": -1,
            "gols_visitante": -1
        },
        {
            "n_rodada": 11,
            "mandante":"",
            "visitante":"",
            "gols_mandante": -1,
            "gols_visitante": -1
        },
        {
            "n_rodada": 12,
            "mandante":"",
            "visitante":"",
            "gols_mandante": -1,
            "gols_visitante": -1
        },
        {
            "n_rodada": 12,
            "mandante":"",
            "visitante":"",
            "gols_mandante": -1,
            "gols_visitante": -1
        },
        {
            "n_rodada": 12,
            "mandante":"",
            "visitante":"",
            "gols_mandante": -1,
            "gols_visitante": -1
        },
        {
            "n_rodada": 12,
            "mandante":"",
            "visitante":"",
            "gols_mandante": -1,
            "gols_visitante": -1
        },
        {
            "n_rodada": 12,
            "mandante":"",
            "visitante":"",
            "gols_mandante": -1,
            "gols_visitante": -1
        },
        {
            "n_rodada": 12,
            "mandante":"",
            "visitante":"",
            "gols_mandante": -1,
            "gols_visitante": -1
        },
        {
            "n_rodada": 12,
            "mandante":"",
            "visitante":"",
            "gols_mandante": -1,
            "gols_visitante": -1
        },
        {
            "n_rodada": 12,
            "mandante":"",
            "visitante":"",
            "gols_mandante": -1,
            "gols_visitante": -1
        },
        {
            "n_rodada": 12,
            "mandante":"",
            "visitante":"",
            "gols_mandante": -1,
            "gols_visitante": -1
        },
        {
            "n_rodada": 12,
            "mandante":"",
            "visitante":"",
            "gols_mandante": -1,
            "gols_visitante": -1
        },
        {
            "n_rodada": 13,
            "mandante":"",
            "visitante":"",
            "gols_mandante": -1,
            "gols_visitante": -1
        },
        {
            "n_rodada": 13,
            "mandante":"",
            "visitante":"",
            "gols_mandante": -1,
            "gols_visitante": -1
        },
        {
            "n_rodada": 13,
            "mandante":"",
            "visitante":"",
            "gols_mandante": -1,
            "gols_visitante": -1
        },
        {
            "n_rodada": 13,
            "mandante":"",
            "visitante":"",
            "gols_mandante": -1,
            "gols_visitante": -1
        },
        {
            "n_rodada": 13,
            "mandante":"",
            "visitante":"",
            "gols_mandante": -1,
            "gols_visitante": -1
        },
        {
            "n_rodada": 13,
            "mandante":"",
            "visitante":"",
            "gols_mandante": -1,
            "gols_visitante": -1
        },
        {
            "n_rodada": 13,
            "mandante":"",
            "visitante":"",
            "gols_mandante": -1,
            "gols_visitante": -1
        },
        {
            "n_rodada": 13,
            "mandante":"",
            "visitante":"",
            "gols_mandante": -1,
            "gols_visitante": -1
        },
        {
            "n_rodada": 13,
            "mandante":"",
            "visitante":"",
            "gols_mandante": -1,
            "gols_visitante": -1
        },
        {
            "n_rodada": 13,
            "mandante":"",
            "visitante":"",
            "gols_mandante": -1,
            "gols_visitante": -1
        },
        {
            "n_rodada": 14,
            "mandante":"",
            "visitante":"",
            "gols_mandante": -1,
            "gols_visitante": -1
        },
        {
            "n_rodada": 14,
            "mandante":"",
            "visitante":"",
            "gols_mandante": -1,
            "gols_visitante": -1
        },
        {
            "n_rodada": 14,
            "mandante":"",
            "visitante":"",
            "gols_mandante": -1,
            "gols_visitante": -1
        },
        {
            "n_rodada": 14,
            "mandante":"",
            "visitante":"",
            "gols_mandante": -1,
            "gols_visitante": -1
        },
        {
            "n_rodada": 14,
            "mandante":"",
            "visitante":"",
            "gols_mandante": -1,
            "gols_visitante": -1
        },
        {
            "n_rodada": 14,
            "mandante":"",
            "visitante":"",
            "gols_mandante": -1,
            "gols_visitante": -1
        },
        {
            "n_rodada": 14,
            "mandante":"",
            "visitante":"",
            "gols_mandante": -1,
            "gols_visitante": -1
        },
        {
            "n_rodada": 14,
            "mandante":"",
            "visitante":"",
            "gols_mandante": -1,
            "gols_visitante": -1
        },
        {
            "n_rodada": 14,
            "mandante":"",
            "visitante":"",
            "gols_mandante": -1,
            "gols_visitante": -1
        },
        {
            "n_rodada": 14,
            "mandante":"",
            "visitante":"",
            "gols_mandante": -1,
            "gols_visitante": -1
        },
        {
            "n_rodada": 15,
            "mandante":"",
            "visitante":"",
            "gols_mandante": -1,
            "gols_visitante": -1
        },
        {
            "n_rodada": 15,
            "mandante":"",
            "visitante":"",
            "gols_mandante": -1,
            "gols_visitante": -1
        },
        {
            "n_rodada": 15,
            "mandante":"",
            "visitante":"",
            "gols_mandante": -1,
            "gols_visitante": -1
        },
        {
            "n_rodada": 15,
            "mandante":"",
            "visitante":"",
            "gols_mandante": -1,
            "gols_visitante": -1
        },
        {
            "n_rodada": 15,
            "mandante":"",
            "visitante":"",
            "gols_mandante": -1,
            "gols_visitante": -1
        },
        {
            "n_rodada": 15,
            "mandante":"",
            "visitante":"",
            "gols_mandante": -1,
            "gols_visitante": -1
        },
        {
            "n_rodada": 15,
            "mandante":"",
            "visitante":"",
            "gols_mandante": -1,
            "gols_visitante": -1
        },
        {
            "n_rodada": 15,
            "mandante":"",
            "visitante":"",
            "gols_mandante": -1,
            "gols_visitante": -1
        },
        {
            "n_rodada": 15,
            "mandante":"",
            "visitante":"",
            "gols_mandante": -1,
            "gols_visitante": -1
        },
        {
            "n_rodada": 15,
            "mandante":"",
            "visitante":"",
            "gols_mandante": -1,
            "gols_visitante": -1
        },
        {
            "n_rodada": 16,
            "mandante":"",
            "visitante":"",
            "gols_mandante": -1,
            "gols_visitante": -1
        },
        {
            "n_rodada": 16,
            "mandante":"",
            "visitante":"",
            "gols_mandante": -1,
            "gols_visitante": -1
        },
        {
            "n_rodada": 16,
            "mandante":"",
            "visitante":"",
            "gols_mandante": -1,
            "gols_visitante": -1
        },
        {
            "n_rodada": 16,
            "mandante":"",
            "visitante":"",
            "gols_mandante": -1,
            "gols_visitante": -1
        },
        {
            "n_rodada": 16,
            "mandante":"",
            "visitante":"",
            "gols_mandante": -1,
            "gols_visitante": -1
        },
        {
            "n_rodada": 16,
            "mandante":"",
            "visitante":"",
            "gols_mandante": -1,
            "gols_visitante": -1
        },
        {
            "n_rodada": 16,
            "mandante":"",
            "visitante":"",
            "gols_mandante": -1,
            "gols_visitante": -1
        },
        {
            "n_rodada": 16,
            "mandante":"",
            "visitante":"",
            "gols_mandante": -1,
            "gols_visitante": -1
        },
        {
            "n_rodada": 16,
            "mandante":"",
            "visitante":"",
            "gols_mandante": -1,
            "gols_visitante": -1
        },
        {
            "n_rodada": 16,
            "mandante":"",
            "visitante":"",
            "gols_mandante": -1,
            "gols_visitante": -1
        },
        {
            "n_rodada": 17,
            "mandante":"",
            "visitante":"",
            "gols_mandante": -1,
            "gols_visitante": -1
        },
        {
            "n_rodada": 17,
            "mandante":"",
            "visitante":"",
            "gols_mandante": -1,
            "gols_visitante": -1
        },
        {
            "n_rodada": 17,
            "mandante":"",
            "visitante":"",
            "gols_mandante": -1,
            "gols_visitante": -1
        },
        {
            "n_rodada": 17,
            "mandante":"",
            "visitante":"",
            "gols_mandante": -1,
            "gols_visitante": -1
        },
        {
            "n_rodada": 17,
            "mandante":"",
            "visitante":"",
            "gols_mandante": -1,
            "gols_visitante": -1
        },
        {
            "n_rodada": 17,
            "mandante":"",
            "visitante":"",
            "gols_mandante": -1,
            "gols_visitante": -1
        },
        {
            "n_rodada": 17,
            "mandante":"",
            "visitante":"",
            "gols_mandante": -1,
            "gols_visitante": -1
        },
        {
            "n_rodada": 17,
            "mandante":"",
            "visitante":"",
            "gols_mandante": -1,
            "gols_visitante": -1
        },
        {
            "n_rodada": 17,
            "mandante":"",
            "visitante":"",
            "gols_mandante": -1,
            "gols_visitante": -1
        },
        {
            "n_rodada": 17,
            "mandante":"",
            "visitante":"",
            "gols_mandante": -1,
            "gols_visitante": -1
        },
        {
            "n_rodada": 18,
            "mandante":"",
            "visitante":"",
            "gols_mandante": -1,
            "gols_visitante": -1
        },
        {
            "n_rodada": 18,
            "mandante":"",
            "visitante":"",
            "gols_mandante": -1,
            "gols_visitante": -1
        },
        {
            "n_rodada": 18,
            "mandante":"",
            "visitante":"",
            "gols_mandante": -1,
            "gols_visitante": -1
        },
        {
            "n_rodada": 18,
            "mandante":"",
            "visitante":"",
            "gols_mandante": -1,
            "gols_visitante": -1
        },
        {
            "n_rodada": 18,
            "mandante":"",
            "visitante":"",
            "gols_mandante": -1,
            "gols_visitante": -1
        },
        {
            "n_rodada": 18,
            "mandante":"",
            "visitante":"",
            "gols_mandante": -1,
            "gols_visitante": -1
        },
        {
            "n_rodada": 18,
            "mandante":"",
            "visitante":"",
            "gols_mandante": -1,
            "gols_visitante": -1
        },
        {
            "n_rodada": 18,
            "mandante":"",
            "visitante":"",
            "gols_mandante": -1,
            "gols_visitante": -1
        },
        {
            "n_rodada": 18,
            "mandante":"",
            "visitante":"",
            "gols_mandante": -1,
            "gols_visitante": -1
        },
        {
            "n_rodada": 18,
            "mandante":"",
            "visitante":"",
            "gols_mandante": -1,
            "gols_visitante": -1
        },
        {
            "n_rodada": 19,
            "mandante":"",
            "visitante":"",
            "gols_mandante": -1,
            "gols_visitante": -1
        },
        {
            "n_rodada": 19,
            "mandante":"",
            "visitante":"",
            "gols_mandante": -1,
            "gols_visitante": -1
        },
        {
            "n_rodada": 19,
            "mandante":"",
            "visitante":"",
            "gols_mandante": -1,
            "gols_visitante": -1
        },
        {
            "n_rodada": 19,
            "mandante":"",
            "visitante":"",
            "gols_mandante": -1,
            "gols_visitante": -1
        },
        {
            "n_rodada": 19,
            "mandante":"",
            "visitante":"",
            "gols_mandante": -1,
            "gols_visitante": -1
        },
        {
            "n_rodada": 19,
            "mandante":"",
            "visitante":"",
            "gols_mandante": -1,
            "gols_visitante": -1
        },
        {
            "n_rodada": 19,
            "mandante":"",
            "visitante":"",
            "gols_mandante": -1,
            "gols_visitante": -1
        },
        {
            "n_rodada": 19,
            "mandante":"",
            "visitante":"",
            "gols_mandante": -1,
            "gols_visitante": -1
        },
        {
            "n_rodada": 19,
            "mandante":"",
            "visitante":"",
            "gols_mandante": -1,
            "gols_visitante": -1
        },
        {
            "n_rodada": 19,
            "mandante":"",
            "visitante":"",
            "gols_mandante": -1,
            "gols_visitante": -1
        },
        {
            "n_rodada": 20,
            "mandante":"",
            "visitante":"",
            "gols_mandante": -1,
            "gols_visitante": -1
        },
        {
            "n_rodada": 20,
            "mandante":"",
            "visitante":"",
            "gols_mandante": -1,
            "gols_visitante": -1
        },
        {
            "n_rodada": 20,
            "mandante":"",
            "visitante":"",
            "gols_mandante": -1,
            "gols_visitante": -1
        },
        {
            "n_rodada": 20,
            "mandante":"",
            "visitante":"",
            "gols_mandante": -1,
            "gols_visitante": -1
        },
        {
            "n_rodada": 20,
            "mandante":"",
            "visitante":"",
            "gols_mandante": -1,
            "gols_visitante": -1
        },
        {
            "n_rodada": 20,
            "mandante":"",
            "visitante":"",
            "gols_mandante": -1,
            "gols_visitante": -1
        },
        {
            "n_rodada": 20,
            "mandante":"",
            "visitante":"",
            "gols_mandante": -1,
            "gols_visitante": -1
        },
        {
            "n_rodada": 20,
            "mandante":"",
            "visitante":"",
            "gols_mandante": -1,
            "gols_visitante": -1
        },
        {
            "n_rodada": 20,
            "mandante":"",
            "visitante":"",
            "gols_mandante": -1,
            "gols_visitante": -1
        },
        {
            "n_rodada": 20,
            "mandante":"",
            "visitante":"",
            "gols_mandante": -1,
            "gols_visitante": -1
        },
        {
            "n_rodada": 21,
            "mandante":"",
            "visitante":"",
            "gols_mandante": -1,
            "gols_visitante": -1
        },
        {
            "n_rodada": 21,
            "mandante":"",
            "visitante":"",
            "gols_mandante": -1,
            "gols_visitante": -1
        },
        {
            "n_rodada": 21,
            "mandante":"",
            "visitante":"",
            "gols_mandante": -1,
            "gols_visitante": -1
        },
        {
            "n_rodada": 21,
            "mandante":"",
            "visitante":"",
            "gols_mandante": -1,
            "gols_visitante": -1
        },
        {
            "n_rodada": 21,
            "mandante":"",
            "visitante":"",
            "gols_mandante": -1,
            "gols_visitante": -1
        },
        {
            "n_rodada": 21,
            "mandante":"",
            "visitante":"",
            "gols_mandante": -1,
            "gols_visitante": -1
        },
        {
            "n_rodada": 21,
            "mandante":"",
            "visitante":"",
            "gols_mandante": -1,
            "gols_visitante": -1
        },
        {
            "n_rodada": 21,
            "mandante":"",
            "visitante":"",
            "gols_mandante": -1,
            "gols_visitante": -1
        },
        {
            "n_rodada": 21,
            "mandante":"",
            "visitante":"",
            "gols_mandante": -1,
            "gols_visitante": -1
        },
        {
            "n_rodada": 21,
            "mandante":"",
            "visitante":"",
            "gols_mandante": -1,
            "gols_visitante": -1
        },
        {
            "n_rodada": 22,
            "mandante":"",
            "visitante":"",
            "gols_mandante": -1,
            "gols_visitante": -1
        },
        {
            "n_rodada": 22,
            "mandante":"",
            "visitante":"",
            "gols_mandante": -1,
            "gols_visitante": -1
        },
        {
            "n_rodada": 22,
            "mandante":"",
            "visitante":"",
            "gols_mandante": -1,
            "gols_visitante": -1
        },
        {
            "n_rodada": 22,
            "mandante":"",
            "visitante":"",
            "gols_mandante": -1,
            "gols_visitante": -1
        },
        {
            "n_rodada": 22,
            "mandante":"",
            "visitante":"",
            "gols_mandante": -1,
            "gols_visitante": -1
        },
        {
            "n_rodada": 22,
            "mandante":"",
            "visitante":"",
            "gols_mandante": -1,
            "gols_visitante": -1
        },
        {
            "n_rodada": 22,
            "mandante":"",
            "visitante":"",
            "gols_mandante": -1,
            "gols_visitante": -1
        },
        {
            "n_rodada": 22,
            "mandante":"",
            "visitante":"",
            "gols_mandante": -1,
            "gols_visitante": -1
        },
        {
            "n_rodada": 22,
            "mandante":"",
            "visitante":"",
            "gols_mandante": -1,
            "gols_visitante": -1
        },
        {
            "n_rodada": 22,
            "mandante":"",
            "visitante":"",
            "gols_mandante": -1,
            "gols_visitante": -1
        },
        {
            "n_rodada": 23,
            "mandante":"",
            "visitante":"",
            "gols_mandante": -1,
            "gols_visitante": -1
        },
        {
            "n_rodada": 23,
            "mandante":"",
            "visitante":"",
            "gols_mandante": -1,
            "gols_visitante": -1
        },
        {
            "n_rodada": 23,
            "mandante":"",
            "visitante":"",
            "gols_mandante": -1,
            "gols_visitante": -1
        },
        {
            "n_rodada": 23,
            "mandante":"",
            "visitante":"",
            "gols_mandante": -1,
            "gols_visitante": -1
        },
        {
            "n_rodada": 23,
            "mandante":"",
            "visitante":"",
            "gols_mandante": -1,
            "gols_visitante": -1
        },
        {
            "n_rodada": 23,
            "mandante":"",
            "visitante":"",
            "gols_mandante": -1,
            "gols_visitante": -1
        },
        {
            "n_rodada": 23,
            "mandante":"",
            "visitante":"",
            "gols_mandante": -1,
            "gols_visitante": -1
        },
        {
            "n_rodada": 23,
            "mandante":"",
            "visitante":"",
            "gols_mandante": -1,
            "gols_visitante": -1
        },
        {
            "n_rodada": 23,
            "mandante":"",
            "visitante":"",
            "gols_mandante": -1,
            "gols_visitante": -1
        },
        {
            "n_rodada": 23,
            "mandante":"",
            "visitante":"",
            "gols_mandante": -1,
            "gols_visitante": -1
        },
        {
            "n_rodada": 24,
            "mandante":"",
            "visitante":"",
            "gols_mandante": -1,
            "gols_visitante": -1
        },
        {
            "n_rodada": 24,
            "mandante":"",
            "visitante":"",
            "gols_mandante": -1,
            "gols_visitante": -1
        },
        {
            "n_rodada": 24,
            "mandante":"",
            "visitante":"",
            "gols_mandante": -1,
            "gols_visitante": -1
        },
        {
            "n_rodada": 24,
            "mandante":"",
            "visitante":"",
            "gols_mandante": -1,
            "gols_visitante": -1
        },
        {
            "n_rodada": 24,
            "mandante":"",
            "visitante":"",
            "gols_mandante": -1,
            "gols_visitante": -1
        },
        {
            "n_rodada": 24,
            "mandante":"",
            "visitante":"",
            "gols_mandante": -1,
            "gols_visitante": -1
        },
        {
            "n_rodada": 24,
            "mandante":"",
            "visitante":"",
            "gols_mandante": -1,
            "gols_visitante": -1
        },
        {
            "n_rodada": 24,
            "mandante":"",
            "visitante":"",
            "gols_mandante": -1,
            "gols_visitante": -1
        },
        {
            "n_rodada": 24,
            "mandante":"",
            "visitante":"",
            "gols_mandante": -1,
            "gols_visitante": -1
        },
        {
            "n_rodada": 24,
            "mandante":"",
            "visitante":"",
            "gols_mandante": -1,
            "gols_visitante": -1
        },
        {
            "n_rodada": 25,
            "mandante":"",
            "visitante":"",
            "gols_mandante": -1,
            "gols_visitante": -1
        },
        {
            "n_rodada": 25,
            "mandante":"",
            "visitante":"",
            "gols_mandante": -1,
            "gols_visitante": -1
        },
        {
            "n_rodada": 25,
            "mandante":"",
            "visitante":"",
            "gols_mandante": -1,
            "gols_visitante": -1
        },
        {
            "n_rodada": 25,
            "mandante":"",
            "visitante":"",
            "gols_mandante": -1,
            "gols_visitante": -1
        },
        {
            "n_rodada": 25,
            "mandante":"",
            "visitante":"",
            "gols_mandante": -1,
            "gols_visitante": -1
        },
        {
            "n_rodada": 25,
            "mandante":"",
            "visitante":"",
            "gols_mandante": -1,
            "gols_visitante": -1
        },
        {
            "n_rodada": 25,
            "mandante":"",
            "visitante":"",
            "gols_mandante": -1,
            "gols_visitante": -1
        },
        {
            "n_rodada": 25,
            "mandante":"",
            "visitante":"",
            "gols_mandante": -1,
            "gols_visitante": -1
        },
        {
            "n_rodada": 25,
            "mandante":"",
            "visitante":"",
            "gols_mandante": -1,
            "gols_visitante": -1
        },
        {
            "n_rodada": 25,
            "mandante":"",
            "visitante":"",
            "gols_mandante": -1,
            "gols_visitante": -1
        },
        {
            "n_rodada": 26,
            "mandante":"",
            "visitante":"",
            "gols_mandante": -1,
            "gols_visitante": -1
        },
        {
            "n_rodada": 26,
            "mandante":"",
            "visitante":"",
            "gols_mandante": -1,
            "gols_visitante": -1
        },
        {
            "n_rodada": 26,
            "mandante":"",
            "visitante":"",
            "gols_mandante": -1,
            "gols_visitante": -1
        },
        {
            "n_rodada": 26,
            "mandante":"",
            "visitante":"",
            "gols_mandante": -1,
            "gols_visitante": -1
        },
        {
            "n_rodada": 26,
            "mandante":"",
            "visitante":"",
            "gols_mandante": -1,
            "gols_visitante": -1
        },
        {
            "n_rodada": 26,
            "mandante":"",
            "visitante":"",
            "gols_mandante": -1,
            "gols_visitante": -1
        },
        {
            "n_rodada": 26,
            "mandante":"",
            "visitante":"",
            "gols_mandante": -1,
            "gols_visitante": -1
        },
        {
            "n_rodada": 26,
            "mandante":"",
            "visitante":"",
            "gols_mandante": -1,
            "gols_visitante": -1
        },
        {
            "n_rodada": 26,
            "mandante":"",
            "visitante":"",
            "gols_mandante": -1,
            "gols_visitante": -1
        },
        {
            "n_rodada": 26,
            "mandante":"",
            "visitante":"",
            "gols_mandante": -1,
            "gols_visitante": -1
        },
        {
            "n_rodada": 27,
            "mandante":"",
            "visitante":"",
            "gols_mandante": -1,
            "gols_visitante": -1
        },
        {
            "n_rodada": 27,
            "mandante":"",
            "visitante":"",
            "gols_mandante": -1,
            "gols_visitante": -1
        },
        {
            "n_rodada": 27,
            "mandante":"",
            "visitante":"",
            "gols_mandante": -1,
            "gols_visitante": -1
        },
        {
            "n_rodada": 27,
            "mandante":"",
            "visitante":"",
            "gols_mandante": -1,
            "gols_visitante": -1
        },
        {
            "n_rodada": 27,
            "mandante":"",
            "visitante":"",
            "gols_mandante": -1,
            "gols_visitante": -1
        },
        {
            "n_rodada": 27,
            "mandante":"",
            "visitante":"",
            "gols_mandante": -1,
            "gols_visitante": -1
        },
        {
            "n_rodada": 27,
            "mandante":"",
            "visitante":"",
            "gols_mandante": -1,
            "gols_visitante": -1
        },
        {
            "n_rodada": 27,
            "mandante":"",
            "visitante":"",
            "gols_mandante": -1,
            "gols_visitante": -1
        },
        {
            "n_rodada": 27,
            "mandante":"",
            "visitante":"",
            "gols_mandante": -1,
            "gols_visitante": -1
        },
        {
            "n_rodada": 27,
            "mandante":"",
            "visitante":"",
            "gols_mandante": -1,
            "gols_visitante": -1
        },
        {
            "n_rodada": 28,
            "mandante":"",
            "visitante":"",
            "gols_mandante": -1,
            "gols_visitante": -1
        },
        {
            "n_rodada": 28,
            "mandante":"",
            "visitante":"",
            "gols_mandante": -1,
            "gols_visitante": -1
        },
        {
            "n_rodada": 28,
            "mandante":"",
            "visitante":"",
            "gols_mandante": -1,
            "gols_visitante": -1
        },
        {
            "n_rodada": 28,
            "mandante":"",
            "visitante":"",
            "gols_mandante": -1,
            "gols_visitante": -1
        },
        {
            "n_rodada": 28,
            "mandante":"",
            "visitante":"",
            "gols_mandante": -1,
            "gols_visitante": -1
        },
        {
            "n_rodada": 28,
            "mandante":"",
            "visitante":"",
            "gols_mandante": -1,
            "gols_visitante": -1
        },
        {
            "n_rodada": 28,
            "mandante":"",
            "visitante":"",
            "gols_mandante": -1,
            "gols_visitante": -1
        },
        {
            "n_rodada": 28,
            "mandante":"",
            "visitante":"",
            "gols_mandante": -1,
            "gols_visitante": -1
        },
        {
            "n_rodada": 28,
            "mandante":"",
            "visitante":"",
            "gols_mandante": -1,
            "gols_visitante": -1
        },
        {
            "n_rodada": 28,
            "mandante":"",
            "visitante":"",
            "gols_mandante": -1,
            "gols_visitante": -1
        },
        {
            "n_rodada": 29,
            "mandante":"",
            "visitante":"",
            "gols_mandante": -1,
            "gols_visitante": -1
        },
        {
            "n_rodada": 29,
            "mandante":"",
            "visitante":"",
            "gols_mandante": -1,
            "gols_visitante": -1
        },
        {
            "n_rodada": 29,
            "mandante":"",
            "visitante":"",
            "gols_mandante": -1,
            "gols_visitante": -1
        },
        {
            "n_rodada": 29,
            "mandante":"",
            "visitante":"",
            "gols_mandante": -1,
            "gols_visitante": -1
        },
        {
            "n_rodada": 29,
            "mandante":"",
            "visitante":"",
            "gols_mandante": -1,
            "gols_visitante": -1
        },
        {
            "n_rodada": 29,
            "mandante":"",
            "visitante":"",
            "gols_mandante": -1,
            "gols_visitante": -1
        },
        {
            "n_rodada": 29,
            "mandante":"",
            "visitante":"",
            "gols_mandante": -1,
            "gols_visitante": -1
        },
        {
            "n_rodada": 29,
            "mandante":"",
            "visitante":"",
            "gols_mandante": -1,
            "gols_visitante": -1
        },
        {
            "n_rodada": 29,
            "mandante":"",
            "visitante":"",
            "gols_mandante": -1,
            "gols_visitante": -1
        },
        {
            "n_rodada": 29,
            "mandante":"",
            "visitante":"",
            "gols_mandante": -1,
            "gols_visitante": -1
        },
        {
            "n_rodada": 30,
            "mandante":"",
            "visitante":"",
            "gols_mandante": -1,
            "gols_visitante": -1
        },
        {
            "n_rodada": 30,
            "mandante":"",
            "visitante":"",
            "gols_mandante": -1,
            "gols_visitante": -1
        },
        {
            "n_rodada": 30,
            "mandante":"",
            "visitante":"",
            "gols_mandante": -1,
            "gols_visitante": -1
        },
        {
            "n_rodada": 30,
            "mandante":"",
            "visitante":"",
            "gols_mandante": -1,
            "gols_visitante": -1
        },
        {
            "n_rodada": 30,
            "mandante":"",
            "visitante":"",
            "gols_mandante": -1,
            "gols_visitante": -1
        },
        {
            "n_rodada": 30,
            "mandante":"",
            "visitante":"",
            "gols_mandante": -1,
            "gols_visitante": -1
        },
        {
            "n_rodada": 30,
            "mandante":"",
            "visitante":"",
            "gols_mandante": -1,
            "gols_visitante": -1
        },
        {
            "n_rodada": 30,
            "mandante":"",
            "visitante":"",
            "gols_mandante": -1,
            "gols_visitante": -1
        },
        {
            "n_rodada": 30,
            "mandante":"",
            "visitante":"",
            "gols_mandante": -1,
            "gols_visitante": -1
        },
        {
            "n_rodada": 30,
            "mandante":"",
            "visitante":"",
            "gols_mandante": -1,
            "gols_visitante": -1
        },
        {
            "n_rodada": 31,
            "mandante":"",
            "visitante":"",
            "gols_mandante": -1,
            "gols_visitante": -1
        },
        {
            "n_rodada": 31,
            "mandante":"",
            "visitante":"",
            "gols_mandante": -1,
            "gols_visitante": -1
        },
        {
            "n_rodada": 31,
            "mandante":"",
            "visitante":"",
            "gols_mandante": -1,
            "gols_visitante": -1
        },
        {
            "n_rodada": 31,
            "mandante":"",
            "visitante":"",
            "gols_mandante": -1,
            "gols_visitante": -1
        },
        {
            "n_rodada": 31,
            "mandante":"",
            "visitante":"",
            "gols_mandante": -1,
            "gols_visitante": -1
        },
        {
            "n_rodada": 31,
            "mandante":"",
            "visitante":"",
            "gols_mandante": -1,
            "gols_visitante": -1
        },
        {
            "n_rodada": 31,
            "mandante":"",
            "visitante":"",
            "gols_mandante": -1,
            "gols_visitante": -1
        },
        {
            "n_rodada": 31,
            "mandante":"",
            "visitante":"",
            "gols_mandante": -1,
            "gols_visitante": -1
        },
        {
            "n_rodada": 31,
            "mandante":"",
            "visitante":"",
            "gols_mandante": -1,
            "gols_visitante": -1
        },
        {
            "n_rodada": 31,
            "mandante":"",
            "visitante":"",
            "gols_mandante": -1,
            "gols_visitante": -1
        },
        {
            "n_rodada": 32,
            "mandante":"",
            "visitante":"",
            "gols_mandante": -1,
            "gols_visitante": -1
        },
        {
            "n_rodada": 32,
            "mandante":"",
            "visitante":"",
            "gols_mandante": -1,
            "gols_visitante": -1
        },
        {
            "n_rodada": 32,
            "mandante":"",
            "visitante":"",
            "gols_mandante": -1,
            "gols_visitante": -1
        },
        {
            "n_rodada": 32,
            "mandante":"",
            "visitante":"",
            "gols_mandante": -1,
            "gols_visitante": -1
        },
        {
            "n_rodada": 32,
            "mandante":"",
            "visitante":"",
            "gols_mandante": -1,
            "gols_visitante": -1
        },
        {
            "n_rodada": 32,
            "mandante":"",
            "visitante":"",
            "gols_mandante": -1,
            "gols_visitante": -1
        },
        {
            "n_rodada": 32,
            "mandante":"",
            "visitante":"",
            "gols_mandante": -1,
            "gols_visitante": -1
        },
        {
            "n_rodada": 32,
            "mandante":"",
            "visitante":"",
            "gols_mandante": -1,
            "gols_visitante": -1
        },
        {
            "n_rodada": 32,
            "mandante":"",
            "visitante":"",
            "gols_mandante": -1,
            "gols_visitante": -1
        },
        {
            "n_rodada": 32,
            "mandante":"",
            "visitante":"",
            "gols_mandante": -1,
            "gols_visitante": -1
        },
        {
            "n_rodada": 33,
            "mandante":"",
            "visitante":"",
            "gols_mandante": -1,
            "gols_visitante": -1
        },
        {
            "n_rodada": 33,
            "mandante":"",
            "visitante":"",
            "gols_mandante": -1,
            "gols_visitante": -1
        },
        {
            "n_rodada": 33,
            "mandante":"",
            "visitante":"",
            "gols_mandante": -1,
            "gols_visitante": -1
        },
        {
            "n_rodada": 33,
            "mandante":"",
            "visitante":"",
            "gols_mandante": -1,
            "gols_visitante": -1
        },
        {
            "n_rodada": 33,
            "mandante":"",
            "visitante":"",
            "gols_mandante": -1,
            "gols_visitante": -1
        },
        {
            "n_rodada": 33,
            "mandante":"",
            "visitante":"",
            "gols_mandante": -1,
            "gols_visitante": -1
        },
        {
            "n_rodada": 33,
            "mandante":"",
            "visitante":"",
            "gols_mandante": -1,
            "gols_visitante": -1
        },
        {
            "n_rodada": 33,
            "mandante":"",
            "visitante":"",
            "gols_mandante": -1,
            "gols_visitante": -1
        },
        {
            "n_rodada": 33,
            "mandante":"",
            "visitante":"",
            "gols_mandante": -1,
            "gols_visitante": -1
        },
        {
            "n_rodada": 33,
            "mandante":"",
            "visitante":"",
            "gols_mandante": -1,
            "gols_visitante": -1
        },
        {
            "n_rodada": 34,
            "mandante":"",
            "visitante":"",
            "gols_mandante": -1,
            "gols_visitante": -1
        },
        {
            "n_rodada": 34,
            "mandante":"",
            "visitante":"",
            "gols_mandante": -1,
            "gols_visitante": -1
        },
        {
            "n_rodada": 34,
            "mandante":"",
            "visitante":"",
            "gols_mandante": -1,
            "gols_visitante": -1
        },
        {
            "n_rodada": 34,
            "mandante":"",
            "visitante":"",
            "gols_mandante": -1,
            "gols_visitante": -1
        },
        {
            "n_rodada": 34,
            "mandante":"",
            "visitante":"",
            "gols_mandante": -1,
            "gols_visitante": -1
        },
        {
            "n_rodada": 34,
            "mandante":"",
            "visitante":"",
            "gols_mandante": -1,
            "gols_visitante": -1
        },
        {
            "n_rodada": 34,
            "mandante":"",
            "visitante":"",
            "gols_mandante": -1,
            "gols_visitante": -1
        },
        {
            "n_rodada": 34,
            "mandante":"",
            "visitante":"",
            "gols_mandante": -1,
            "gols_visitante": -1
        },
        {
            "n_rodada": 34,
            "mandante":"",
            "visitante":"",
            "gols_mandante": -1,
            "gols_visitante": -1
        },
        {
            "n_rodada": 34,
            "mandante":"",
            "visitante":"",
            "gols_mandante": -1,
            "gols_visitante": -1
        },
        {
            "n_rodada": 35,
            "mandante":"",
            "visitante":"",
            "gols_mandante": -1,
            "gols_visitante": -1
        },
        {
            "n_rodada": 35,
            "mandante":"",
            "visitante":"",
            "gols_mandante": -1,
            "gols_visitante": -1
        },
        {
            "n_rodada": 35,
            "mandante":"",
            "visitante":"",
            "gols_mandante": -1,
            "gols_visitante": -1
        },
        {
            "n_rodada": 35,
            "mandante":"",
            "visitante":"",
            "gols_mandante": -1,
            "gols_visitante": -1
        },
        {
            "n_rodada": 35,
            "mandante":"",
            "visitante":"",
            "gols_mandante": -1,
            "gols_visitante": -1
        },
        {
            "n_rodada": 35,
            "mandante":"",
            "visitante":"",
            "gols_mandante": -1,
            "gols_visitante": -1
        },
        {
            "n_rodada": 35,
            "mandante":"",
            "visitante":"",
            "gols_mandante": -1,
            "gols_visitante": -1
        },
        {
            "n_rodada": 35,
            "mandante":"",
            "visitante":"",
            "gols_mandante": -1,
            "gols_visitante": -1
        },
        {
            "n_rodada": 35,
            "mandante":"",
            "visitante":"",
            "gols_mandante": -1,
            "gols_visitante": -1
        },
        {
            "n_rodada": 35,
            "mandante":"",
            "visitante":"",
            "gols_mandante": -1,
            "gols_visitante": -1
        },
        {
            "n_rodada": 36,
            "mandante":"",
            "visitante":"",
            "gols_mandante": -1,
            "gols_visitante": -1
        },
        {
            "n_rodada": 36,
            "mandante":"",
            "visitante":"",
            "gols_mandante": -1,
            "gols_visitante": -1
        },
        {
            "n_rodada": 36,
            "mandante":"",
            "visitante":"",
            "gols_mandante": -1,
            "gols_visitante": -1
        },
        {
            "n_rodada": 36,
            "mandante":"",
            "visitante":"",
            "gols_mandante": -1,
            "gols_visitante": -1
        },
        {
            "n_rodada": 36,
            "mandante":"",
            "visitante":"",
            "gols_mandante": -1,
            "gols_visitante": -1
        },
        {
            "n_rodada": 36,
            "mandante":"",
            "visitante":"",
            "gols_mandante": -1,
            "gols_visitante": -1
        },
        {
            "n_rodada": 36,
            "mandante":"",
            "visitante":"",
            "gols_mandante": -1,
            "gols_visitante": -1
        },
        {
            "n_rodada": 36,
            "mandante":"",
            "visitante":"",
            "gols_mandante": -1,
            "gols_visitante": -1
        },
        {
            "n_rodada": 36,
            "mandante":"",
            "visitante":"",
            "gols_mandante": -1,
            "gols_visitante": -1
        },
        {
            "n_rodada": 36,
            "mandante":"",
            "visitante":"",
            "gols_mandante": -1,
            "gols_visitante": -1
        },
        {
            "n_rodada": 37,
            "mandante":"",
            "visitante":"",
            "gols_mandante": -1,
            "gols_visitante": -1
        },
        {
            "n_rodada": 37,
            "mandante":"",
            "visitante":"",
            "gols_mandante": -1,
            "gols_visitante": -1
        },
        {
            "n_rodada": 37,
            "mandante":"",
            "visitante":"",
            "gols_mandante": -1,
            "gols_visitante": -1
        },
        {
            "n_rodada": 37,
            "mandante":"",
            "visitante":"",
            "gols_mandante": -1,
            "gols_visitante": -1
        },
        {
            "n_rodada": 37,
            "mandante":"",
            "visitante":"",
            "gols_mandante": -1,
            "gols_visitante": -1
        },
        {
            "n_rodada": 37,
            "mandante":"",
            "visitante":"",
            "gols_mandante": -1,
            "gols_visitante": -1
        },
        {
            "n_rodada": 37,
            "mandante":"",
            "visitante":"",
            "gols_mandante": -1,
            "gols_visitante": -1
        },
        {
            "n_rodada": 37,
            "mandante":"",
            "visitante":"",
            "gols_mandante": -1,
            "gols_visitante": -1
        },
        {
            "n_rodada": 37,
            "mandante":"",
            "visitante":"",
            "gols_mandante": -1,
            "gols_visitante": -1
        },
        {
            "n_rodada": 37,
            "mandante":"",
            "visitante":"",
            "gols_mandante": -1,
            "gols_visitante": -1
        },
        {
            "n_rodada": 38,
            "mandante":"",
            "visitante":"",
            "gols_mandante": -1,
            "gols_visitante": -1
        },
        {
            "n_rodada": 38,
            "mandante":"",
            "visitante":"",
            "gols_mandante": -1,
            "gols_visitante": -1
        },
        {
            "n_rodada": 38,
            "mandante":"",
            "visitante":"",
            "gols_mandante": -1,
            "gols_visitante": -1
        },
        {
            "n_rodada": 38,
            "mandante":"",
            "visitante":"",
            "gols_mandante": -1,
            "gols_visitante": -1
        },
        {
            "n_rodada": 38,
            "mandante":"",
            "visitante":"",
            "gols_mandante": -1,
            "gols_visitante": -1
        },
        {
            "n_rodada": 38,
            "mandante":"",
            "visitante":"",
            "gols_mandante": -1,
            "gols_visitante": -1
        },
        {
            "n_rodada": 38,
            "mandante":"",
            "visitante":"",
            "gols_mandante": -1,
            "gols_visitante": -1
        },
        {
            "n_rodada": 38,
            "mandante":"",
            "visitante":"",
            "gols_mandante": -1,
            "gols_visitante": -1
        },
        {
            "n_rodada": 38,
            "mandante":"",
            "visitante":"",
            "gols_mandante": -1,
            "gols_visitante": -1
        },
        {
            "n_rodada": 38,
            "mandante":"",
            "visitante":"",
            "gols_mandante": -1,
            "gols_visitante": -1
        }
    ]
}
