{
        "rodadas": [
            {
"n_rodada": 1,
"mandante": "Botafogo",
"visitante": "Santos",
"gols_mandante": 3 ,
"gols_visitante":  3
},
{
"n_rodada": 1,
"mandante": "Palmeiras",
"visitante": "Vitória",
"gols_mandante": 1 ,
"gols_visitante":  0
},
{
"n_rodada": 1,
"mandante": "Atlético-GO",
"visitante": "Grêmio",
"gols_mandante": 0 ,
"gols_visitante":  0
},
{
"n_rodada": 1,
"mandante": "Flamengo",
"visitante": "São Paulo",
"gols_mandante": 1 ,
"gols_visitante":  1
},
{
"n_rodada": 1,
"mandante": "Atlético-MG",
"visitante": "Vasco",
"gols_mandante": 2 ,
"gols_visitante":  1
},
{
"n_rodada": 1,
"mandante": "Internacional",
"visitante": "Cruzeiro",
"gols_mandante": 1 ,
"gols_visitante":  2
},
{
"n_rodada": 1,
"mandante": "Corinthians",
"visitante": "Atlético-PR",
"gols_mandante": 2 ,
"gols_visitante":  1
},
{
"n_rodada": 1,
"mandante": "Ceará",
"visitante": "Fluminense",
"gols_mandante": 1 ,
"gols_visitante":  0
},
{
"n_rodada": 1,
"mandante": "Guarani",
"visitante": "Goiás",
"gols_mandante": 1 ,
"gols_visitante":  0
},
{
"n_rodada": 1,
"mandante": "Avaí",
"visitante": "Grêmio Prudente",
"gols_mandante": 6 ,
"gols_visitante":  1
},
{
"n_rodada": 2,
"mandante": "Fluminense",
"visitante": "Atlético-GO",
"gols_mandante": 1 ,
"gols_visitante":  0
},
{
"n_rodada": 2,
"mandante": "Grêmio Prudente",
"visitante": "Atlético-MG",
"gols_mandante": 4 ,
"gols_visitante":  0
},
{
"n_rodada": 2,
"mandante": "Vitória",
"visitante": "Flamengo",
"gols_mandante": 1 ,
"gols_visitante":  1
},
{
"n_rodada": 2,
"mandante": "São Paulo",
"visitante": "Botafogo",
"gols_mandante": 1 ,
"gols_visitante":  2
},
{
"n_rodada": 2,
"mandante": "Grêmio",
"visitante": "Corinthians",
"gols_mandante": 1 ,
"gols_visitante":  2
},
{
"n_rodada": 2,
"mandante": "Goiás",
"visitante": "Internacional",
"gols_mandante": 2 ,
"gols_visitante":  3
},
{
"n_rodada": 2,
"mandante": "Santos",
"visitante": "Ceará",
"gols_mandante": 1 ,
"gols_visitante":  1
},
{
"n_rodada": 2,
"mandante": "Vasco",
"visitante": "Palmeiras",
"gols_mandante": 0 ,
"gols_visitante":  0
},
{
"n_rodada": 2,
"mandante": "Cruzeiro",
"visitante": "Avaí",
"gols_mandante": 2 ,
"gols_visitante":  2
},
{
"n_rodada": 2,
"mandante": "Atlético-PR",
"visitante": "Guarani",
"gols_mandante": 2 ,
"gols_visitante":  2
},
{
"n_rodada": 3,
"mandante": "Botafogo",
"visitante": "Goiás",
"gols_mandante": 3 ,
"gols_visitante":  0
},
{
"n_rodada": 3,
"mandante": "Atlético-GO",
"visitante": "Santos",
"gols_mandante": 1 ,
"gols_visitante":  2
},
{
"n_rodada": 3,
"mandante": "Palmeiras",
"visitante": "Grêmio",
"gols_mandante": 4 ,
"gols_visitante":  2
},
{
"n_rodada": 3,
"mandante": "Corinthians",
"visitante": "Fluminense",
"gols_mandante": 1 ,
"gols_visitante":  0
},
{
"n_rodada": 3,
"mandante": "Atlético-MG",
"visitante": "Atlético-PR",
"gols_mandante": 3 ,
"gols_visitante":  1
},
{
"n_rodada": 3,
"mandante": "Internacional",
"visitante": "São Paulo",
"gols_mandante": 0 ,
"gols_visitante":  2
},
{
"n_rodada": 3,
"mandante": "Ceará",
"visitante": "Vitória",
"gols_mandante": 1 ,
"gols_visitante":  0
},
{
"n_rodada": 3,
"mandante": "Avaí",
"visitante": "Vasco",
"gols_mandante": 2 ,
"gols_visitante":  0
},
{
"n_rodada": 3,
"mandante": "Flamengo",
"visitante": "Grêmio Prudente",
"gols_mandante": 3 ,
"gols_visitante":  1
},
{
"n_rodada": 3,
"mandante": "Guarani",
"visitante": "Cruzeiro",
"gols_mandante": 2 ,
"gols_visitante":  2
},
{
"n_rodada": 4,
"mandante": "Vitória",
"visitante": "Atlético-MG",
"gols_mandante": 4 ,
"gols_visitante":  3
},
{
"n_rodada": 4,
"mandante": "Grêmio",
"visitante": "Avaí",
"gols_mandante": 3 ,
"gols_visitante":  0
},
{
"n_rodada": 4,
"mandante": "Fluminense",
"visitante": "Flamengo",
"gols_mandante": 2 ,
"gols_visitante":  1
},
{
"n_rodada": 4,
"mandante": "São Paulo",
"visitante": "Palmeiras",
"gols_mandante": 1 ,
"gols_visitante":  0
},
{
"n_rodada": 4,
"mandante": "Grêmio Prudente",
"visitante": "Corinthians",
"gols_mandante": 2 ,
"gols_visitante":  2
},
{
"n_rodada": 4,
"mandante": "Cruzeiro",
"visitante": "Botafogo",
"gols_mandante": 1 ,
"gols_visitante":  0
},
{
"n_rodada": 4,
"mandante": "Santos",
"visitante": "Guarani",
"gols_mandante": 3 ,
"gols_visitante":  1
},
{
"n_rodada": 4,
"mandante": "Vasco",
"visitante": "Internacional",
"gols_mandante": 3 ,
"gols_visitante":  2
},
{
"n_rodada": 4,
"mandante": "Atlético-PR",
"visitante": "Atlético-GO",
"gols_mandante": 2 ,
"gols_visitante":  1
},
{
"n_rodada": 4,
"mandante": "Goiás",
"visitante": "Ceará",
"gols_mandante": 0 ,
"gols_visitante":  0
},
{
"n_rodada": 5,
"mandante": "Flamengo",
"visitante": "Grêmio",
"gols_mandante": 1 ,
"gols_visitante":  1
},
{
"n_rodada": 5,
"mandante": "Palmeiras",
"visitante": "Grêmio Prudente",
"gols_mandante": 0 ,
"gols_visitante":  0
},
{
"n_rodada": 5,
"mandante": "Avaí",
"visitante": "Vitória",
"gols_mandante": 0 ,
"gols_visitante":  0
},
{
"n_rodada": 5,
"mandante": "Corinthians",
"visitante": "Santos",
"gols_mandante": 4 ,
"gols_visitante":  2
},
{
"n_rodada": 5,
"mandante": "Guarani",
"visitante": "São Paulo",
"gols_mandante": 0 ,
"gols_visitante":  0
},
{
"n_rodada": 5,
"mandante": "Atlético-MG",
"visitante": "Fluminense",
"gols_mandante": 1 ,
"gols_visitante":  3
},
{
"n_rodada": 5,
"mandante": "Internacional",
"visitante": "Atlético-PR",
"gols_mandante": 4 ,
"gols_visitante":  1
},
{
"n_rodada": 5,
"mandante": "Ceará",
"visitante": "Cruzeiro",
"gols_mandante": 1 ,
"gols_visitante":  0
},
{
"n_rodada": 5,
"mandante": "Atlético-GO",
"visitante": "Goiás",
"gols_mandante": 1 ,
"gols_visitante":  3
},
{
"n_rodada": 5,
"mandante": "Botafogo",
"visitante": "Vasco",
"gols_mandante": 1 ,
"gols_visitante":  1
},
{
"n_rodada": 6,
"mandante": "Atlético-PR",
"visitante": "Botafogo",
"gols_mandante": 3 ,
"gols_visitante":  2
},
{
"n_rodada": 6,
"mandante": "Fluminense",
"visitante": "Vitória",
"gols_mandante": 2 ,
"gols_visitante":  1
},
{
"n_rodada": 6,
"mandante": "Grêmio Prudente",
"visitante": "Atlético-GO",
"gols_mandante": 1 ,
"gols_visitante":  0
},
{
"n_rodada": 6,
"mandante": "Ceará",
"visitante": "Avaí",
"gols_mandante": 2 ,
"gols_visitante":  0
},
{
"n_rodada": 6,
"mandante": "Palmeiras",
"visitante": "Flamengo",
"gols_mandante": 0 ,
"gols_visitante":  1
},
{
"n_rodada": 6,
"mandante": "Goiás",
"visitante": "São Paulo",
"gols_mandante": 2 ,
"gols_visitante":  1
},
{
"n_rodada": 6,
"mandante": "Cruzeiro",
"visitante": "Santos",
"gols_mandante": 0 ,
"gols_visitante":  0
},
{
"n_rodada": 6,
"mandante": "Grêmio",
"visitante": "Atlético-MG",
"gols_mandante": 2 ,
"gols_visitante":  1
},
{
"n_rodada": 6,
"mandante": "Vasco",
"visitante": "Guarani",
"gols_mandante": 0 ,
"gols_visitante":  1
},
{
"n_rodada": 6,
"mandante": "Corinthians",
"visitante": "Internacional",
"gols_mandante": 2 ,
"gols_visitante":  0
},
{
"n_rodada": 7,
"mandante": "Avaí",
"visitante": "Fluminense",
"gols_mandante": 0 ,
"gols_visitante":  3
},
{
"n_rodada": 7,
"mandante": "Flamengo",
"visitante": "Goiás",
"gols_mandante": 1 ,
"gols_visitante":  2
},
{
"n_rodada": 7,
"mandante": "Vitória",
"visitante": "Atlético-PR",
"gols_mandante": 1 ,
"gols_visitante":  0
},
{
"n_rodada": 7,
"mandante": "São Paulo",
"visitante": "Grêmio",
"gols_mandante": 3 ,
"gols_visitante":  1
},
{
"n_rodada": 7,
"mandante": "Santos",
"visitante": "Vasco",
"gols_mandante": 4 ,
"gols_visitante":  0
},
{
"n_rodada": 7,
"mandante": "Botafogo",
"visitante": "Corinthians",
"gols_mandante": 2 ,
"gols_visitante":  2
},
{
"n_rodada": 7,
"mandante": "Atlético-MG",
"visitante": "Ceará",
"gols_mandante": 0 ,
"gols_visitante":  1
},
{
"n_rodada": 7,
"mandante": "Internacional",
"visitante": "Palmeiras",
"gols_mandante": 1 ,
"gols_visitante":  1
},
{
"n_rodada": 7,
"mandante": "Guarani",
"visitante": "Grêmio Prudente",
"gols_mandante": 1 ,
"gols_visitante":  0
},
{
"n_rodada": 7,
"mandante": "Atlético-GO",
"visitante": "Cruzeiro",
"gols_mandante": 2 ,
"gols_visitante":  1
},
{
"n_rodada": 8,
"mandante": "Grêmio",
"visitante": "Vitória",
"gols_mandante": 1 ,
"gols_visitante":  1
},
{
"n_rodada": 8,
"mandante": "Atlético-PR",
"visitante": "Cruzeiro",
"gols_mandante": 0 ,
"gols_visitante":  2
},
{
"n_rodada": 8,
"mandante": "São Paulo",
"visitante": "Avaí",
"gols_mandante": 1 ,
"gols_visitante":  2
},
{
"n_rodada": 8,
"mandante": "Flamengo",
"visitante": "Botafogo",
"gols_mandante": 1 ,
"gols_visitante":  0
},
{
"n_rodada": 8,
"mandante": "Guarani",
"visitante": "Internacional",
"gols_mandante": 0 ,
"gols_visitante":  3
},
{
"n_rodada": 8,
"mandante": "Goiás",
"visitante": "Vasco",
"gols_mandante": 0 ,
"gols_visitante":  0
},
{
"n_rodada": 8,
"mandante": "Ceará",
"visitante": "Corinthians",
"gols_mandante": 0 ,
"gols_visitante":  0
},
{
"n_rodada": 8,
"mandante": "Palmeiras",
"visitante": "Santos",
"gols_mandante": 2 ,
"gols_visitante":  1
},
{
"n_rodada": 8,
"mandante": "Atlético-MG",
"visitante": "Atlético-GO",
"gols_mandante": 3 ,
"gols_visitante":  2
},
{
"n_rodada": 8,
"mandante": "Fluminense",
"visitante": "Grêmio Prudente",
"gols_mandante": 1 ,
"gols_visitante":  1
},
{
"n_rodada": 9,
"mandante": "Vitória",
"visitante": "São Paulo",
"gols_mandante": 3 ,
"gols_visitante":  2
},
{
"n_rodada": 9,
"mandante": "Vasco",
"visitante": "Atlético-PR",
"gols_mandante": 3 ,
"gols_visitante":  1
},
{
"n_rodada": 9,
"mandante": "Corinthians",
"visitante": "Atlético-MG",
"gols_mandante": 1 ,
"gols_visitante":  0
},
{
"n_rodada": 9,
"mandante": "Atlético-GO",
"visitante": "Flamengo",
"gols_mandante": 0 ,
"gols_visitante":  1
},
{
"n_rodada": 9,
"mandante": "Avaí",
"visitante": "Palmeiras",
"gols_mandante": 4 ,
"gols_visitante":  2
},
{
"n_rodada": 9,
"mandante": "Internacional",
"visitante": "Ceará",
"gols_mandante": 2 ,
"gols_visitante":  1
},
{
"n_rodada": 9,
"mandante": "Cruzeiro",
"visitante": "Goiás",
"gols_mandante": 1 ,
"gols_visitante":  0
},
{
"n_rodada": 9,
"mandante": "Santos",
"visitante": "Fluminense",
"gols_mandante": 0 ,
"gols_visitante":  1
},
{
"n_rodada": 9,
"mandante": "Botafogo",
"visitante": "Guarani",
"gols_mandante": 1 ,
"gols_visitante":  1
},
{
"n_rodada": 9,
"mandante": "Grêmio Prudente",
"visitante": "Grêmio",
"gols_mandante": 2 ,
"gols_visitante":  0
},
{
"n_rodada": 10,
"mandante": "Atlético-MG",
"visitante": "Internacional",
"gols_mandante": 1 ,
"gols_visitante":  2
},
{
"n_rodada": 10,
"mandante": "Vitória",
"visitante": "Goiás",
"gols_mandante": 2 ,
"gols_visitante":  2
},
{
"n_rodada": 10,
"mandante": "São Paulo",
"visitante": "Grêmio Prudente",
"gols_mandante": 1 ,
"gols_visitante":  1
},
{
"n_rodada": 10,
"mandante": "Flamengo",
"visitante": "Avaí",
"gols_mandante": 1 ,
"gols_visitante":  1
},
{
"n_rodada": 10,
"mandante": "Atlético-PR",
"visitante": "Santos",
"gols_mandante": 2 ,
"gols_visitante":  0
},
{
"n_rodada": 10,
"mandante": "Grêmio",
"visitante": "Vasco",
"gols_mandante": 1 ,
"gols_visitante":  1
},
{
"n_rodada": 10,
"mandante": "Atlético-GO",
"visitante": "Corinthians",
"gols_mandante": 3 ,
"gols_visitante":  1
},
{
"n_rodada": 10,
"mandante": "Fluminense",
"visitante": "Cruzeiro",
"gols_mandante": 1 ,
"gols_visitante":  0
},
{
"n_rodada": 10,
"mandante": "Guarani",
"visitante": "Ceará",
"gols_mandante": 1 ,
"gols_visitante":  1
},
{
"n_rodada": 10,
"mandante": "Palmeiras",
"visitante": "Botafogo",
"gols_mandante": 2 ,
"gols_visitante":  2
},
{
"n_rodada": 11,
"mandante": "Avaí",
"visitante": "Atlético-MG",
"gols_mandante": 0 ,
"gols_visitante":  0
},
{
"n_rodada": 11,
"mandante": "Vasco",
"visitante": "Atlético-GO",
"gols_mandante": 2 ,
"gols_visitante":  0
},
{
"n_rodada": 11,
"mandante": "Grêmio Prudente",
"visitante": "Vitória",
"gols_mandante": 0 ,
"gols_visitante":  0
},
{
"n_rodada": 11,
"mandante": "Santos",
"visitante": "São Paulo",
"gols_mandante": 1 ,
"gols_visitante":  0
},
{
"n_rodada": 11,
"mandante": "Cruzeiro",
"visitante": "Grêmio",
"gols_mandante": 2 ,
"gols_visitante":  2
},
{
"n_rodada": 11,
"mandante": "Internacional",
"visitante": "Flamengo",
"gols_mandante": 1 ,
"gols_visitante":  0
},
{
"n_rodada": 11,
"mandante": "Goiás",
"visitante": "Atlético-PR",
"gols_mandante": 0 ,
"gols_visitante":  2
},
{
"n_rodada": 11,
"mandante": "Ceará",
"visitante": "Palmeiras",
"gols_mandante": 0 ,
"gols_visitante":  0
},
{
"n_rodada": 11,
"mandante": "Corinthians",
"visitante": "Guarani",
"gols_mandante": 3 ,
"gols_visitante":  1
},
{
"n_rodada": 11,
"mandante": "Botafogo",
"visitante": "Fluminense",
"gols_mandante": 1 ,
"gols_visitante":  1
},
{
"n_rodada": 12,
"mandante": "Fluminense",
"visitante": "Atlético-PR",
"gols_mandante": 3 ,
"gols_visitante":  1
},
{
"n_rodada": 12,
"mandante": "Atlético-GO",
"visitante": "Guarani",
"gols_mandante": 1 ,
"gols_visitante":  1
},
{
"n_rodada": 12,
"mandante": "São Paulo",
"visitante": "Ceará",
"gols_mandante": 2 ,
"gols_visitante":  1
},
{
"n_rodada": 12,
"mandante": "Palmeiras",
"visitante": "Corinthians",
"gols_mandante": 1 ,
"gols_visitante":  1
},
{
"n_rodada": 12,
"mandante": "Vitória",
"visitante": "Botafogo",
"gols_mandante": 1 ,
"gols_visitante":  3
},
{
"n_rodada": 12,
"mandante": "Avaí",
"visitante": "Goiás",
"gols_mandante": 4 ,
"gols_visitante":  1
},
{
"n_rodada": 12,
"mandante": "Internacional",
"visitante": "Grêmio",
"gols_mandante": 0 ,
"gols_visitante":  0
},
{
"n_rodada": 12,
"mandante": "Atlético-MG",
"visitante": "Cruzeiro",
"gols_mandante": 0 ,
"gols_visitante":  1
},
{
"n_rodada": 12,
"mandante": "Grêmio Prudente",
"visitante": "Santos",
"gols_mandante": 1 ,
"gols_visitante":  2
},
{
"n_rodada": 12,
"mandante": "Flamengo",
"visitante": "Vasco",
"gols_mandante": 0 ,
"gols_visitante":  0
},
{
"n_rodada": 13,
"mandante": "Botafogo",
"visitante": "Atlético-MG",
"gols_mandante": 3 ,
"gols_visitante":  0
},
{
"n_rodada": 13,
"mandante": "Guarani",
"visitante": "Avaí",
"gols_mandante": 4 ,
"gols_visitante":  1
},
{
"n_rodada": 13,
"mandante": "Corinthians",
"visitante": "Flamengo",
"gols_mandante": 1 ,
"gols_visitante":  0
},
{
"n_rodada": 13,
"mandante": "Goiás",
"visitante": "Palmeiras",
"gols_mandante": 1 ,
"gols_visitante":  1
},
{
"n_rodada": 13,
"mandante": "Ceará",
"visitante": "Atlético-GO",
"gols_mandante": 0 ,
"gols_visitante":  0
},
{
"n_rodada": 13,
"mandante": "Grêmio",
"visitante": "Fluminense",
"gols_mandante": 1 ,
"gols_visitante":  2
},
{
"n_rodada": 13,
"mandante": "Atlético-PR",
"visitante": "São Paulo",
"gols_mandante": 1 ,
"gols_visitante":  1
},
{
"n_rodada": 13,
"mandante": "Vasco",
"visitante": "Vitória",
"gols_mandante": 1 ,
"gols_visitante":  0
},
{
"n_rodada": 13,
"mandante": "Cruzeiro",
"visitante": "Grêmio Prudente",
"gols_mandante": 0 ,
"gols_visitante":  0
},
{
"n_rodada": 13,
"mandante": "Santos",
"visitante": "Internacional",
"gols_mandante": 1 ,
"gols_visitante":  0
},
{
"n_rodada": 14,
"mandante": "Atlético-GO",
"visitante": "Botafogo",
"gols_mandante": 0 ,
"gols_visitante":  2
},
{
"n_rodada": 14,
"mandante": "Palmeiras",
"visitante": "Atlético-PR",
"gols_mandante": 2 ,
"gols_visitante":  0
},
{
"n_rodada": 14,
"mandante": "Flamengo",
"visitante": "Ceará",
"gols_mandante": 1 ,
"gols_visitante":  0
},
{
"n_rodada": 14,
"mandante": "Atlético-MG",
"visitante": "Guarani",
"gols_mandante": 3 ,
"gols_visitante":  1
},
{
"n_rodada": 14,
"mandante": "São Paulo",
"visitante": "Cruzeiro",
"gols_mandante": 2 ,
"gols_visitante":  2
},
{
"n_rodada": 14,
"mandante": "Grêmio Prudente",
"visitante": "Vasco",
"gols_mandante": 1 ,
"gols_visitante":  2
},
{
"n_rodada": 14,
"mandante": "Avaí",
"visitante": "Corinthians",
"gols_mandante": 3 ,
"gols_visitante":  2
},
{
"n_rodada": 14,
"mandante": "Fluminense",
"visitante": "Internacional",
"gols_mandante": 3 ,
"gols_visitante":  0
},
{
"n_rodada": 14,
"mandante": "Vitória",
"visitante": "Santos",
"gols_mandante": 4 ,
"gols_visitante":  2
},
{
"n_rodada": 14,
"mandante": "Grêmio",
"visitante": "Goiás",
"gols_mandante": 2 ,
"gols_visitante":  0
},
{
"n_rodada": 15,
"mandante": "Goiás",
"visitante": "Grêmio Prudente",
"gols_mandante": 1 ,
"gols_visitante":  2
},
{
"n_rodada": 15,
"mandante": "Botafogo",
"visitante": "Avaí",
"gols_mandante": 1 ,
"gols_visitante":  0
},
{
"n_rodada": 15,
"mandante": "Ceará",
"visitante": "Grêmio",
"gols_mandante": 2 ,
"gols_visitante":  1
},
{
"n_rodada": 15,
"mandante": "Santos",
"visitante": "Atlético-MG",
"gols_mandante": 2 ,
"gols_visitante":  0
},
{
"n_rodada": 15,
"mandante": "Guarani",
"visitante": "Palmeiras",
"gols_mandante": 0 ,
"gols_visitante":  0
},
{
"n_rodada": 15,
"mandante": "Atlético-PR",
"visitante": "Flamengo",
"gols_mandante": 1 ,
"gols_visitante":  0
},
{
"n_rodada": 15,
"mandante": "Internacional",
"visitante": "Atlético-GO",
"gols_mandante": 1 ,
"gols_visitante":  1
},
{
"n_rodada": 15,
"mandante": "Corinthians",
"visitante": "São Paulo",
"gols_mandante": 3 ,
"gols_visitante":  0
},
{
"n_rodada": 15,
"mandante": "Vasco",
"visitante": "Fluminense",
"gols_mandante": 2 ,
"gols_visitante":  2
},
{
"n_rodada": 15,
"mandante": "Cruzeiro",
"visitante": "Vitória",
"gols_mandante": 0 ,
"gols_visitante":  1
},
{
"n_rodada": 16,
"mandante": "Goiás",
"visitante": "Fluminense",
"gols_mandante": 0 ,
"gols_visitante":  3
},
{
"n_rodada": 16,
"mandante": "Avaí",
"visitante": "Internacional",
"gols_mandante": 0 ,
"gols_visitante":  1
},
{
"n_rodada": 16,
"mandante": "Botafogo",
"visitante": "Ceará",
"gols_mandante": 1 ,
"gols_visitante":  0
},
{
"n_rodada": 16,
"mandante": "Grêmio Prudente",
"visitante": "Atlético-PR",
"gols_mandante": 0 ,
"gols_visitante":  1
},
{
"n_rodada": 16,
"mandante": "São Paulo",
"visitante": "Vasco",
"gols_mandante": 0 ,
"gols_visitante":  0
},
{
"n_rodada": 16,
"mandante": "Cruzeiro",
"visitante": "Corinthians",
"gols_mandante": 1 ,
"gols_visitante":  0
},
{
"n_rodada": 16,
"mandante": "Grêmio",
"visitante": "Santos",
"gols_mandante": 1 ,
"gols_visitante":  2
},
{
"n_rodada": 16,
"mandante": "Flamengo",
"visitante": "Atlético-MG",
"gols_mandante": 0 ,
"gols_visitante":  0
},
{
"n_rodada": 16,
"mandante": "Vitória",
"visitante": "Guarani",
"gols_mandante": 1 ,
"gols_visitante":  1
},
{
"n_rodada": 16,
"mandante": "Palmeiras",
"visitante": "Atlético-GO",
"gols_mandante": 0 ,
"gols_visitante":  3
},
{
"n_rodada": 17,
"mandante": "Internacional",
"visitante": "Botafogo",
"gols_mandante": 1 ,
"gols_visitante":  0
},
{
"n_rodada": 17,
"mandante": "Vasco",
"visitante": "Cruzeiro",
"gols_mandante": 1 ,
"gols_visitante":  1
},
{
"n_rodada": 17,
"mandante": "Ceará",
"visitante": "Grêmio Prudente",
"gols_mandante": 2 ,
"gols_visitante":  2
},
{
"n_rodada": 17,
"mandante": "Santos",
"visitante": "Goiás",
"gols_mandante": 2 ,
"gols_visitante":  0
},
{
"n_rodada": 17,
"mandante": "Corinthians",
"visitante": "Vitória",
"gols_mandante": 2 ,
"gols_visitante":  1
},
{
"n_rodada": 17,
"mandante": "Guarani",
"visitante": "Flamengo",
"gols_mandante": 2 ,
"gols_visitante":  1
},
{
"n_rodada": 17,
"mandante": "Atlético-MG",
"visitante": "Palmeiras",
"gols_mandante": 1 ,
"gols_visitante":  2
},
{
"n_rodada": 17,
"mandante": "Fluminense",
"visitante": "São Paulo",
"gols_mandante": 2 ,
"gols_visitante":  2
},
{
"n_rodada": 17,
"mandante": "Atlético-GO",
"visitante": "Avaí",
"gols_mandante": 2 ,
"gols_visitante":  2
},
{
"n_rodada": 17,
"mandante": "Atlético-PR",
"visitante": "Grêmio",
"gols_mandante": 1 ,
"gols_visitante":  1
},
{
"n_rodada": 18,
"mandante": "Vitória",
"visitante": "Internacional",
"gols_mandante": 0 ,
"gols_visitante":  0
},
{
"n_rodada": 18,
"mandante": "Grêmio",
"visitante": "Guarani",
"gols_mandante": 1 ,
"gols_visitante":  0
},
{
"n_rodada": 18,
"mandante": "Grêmio Prudente",
"visitante": "Botafogo",
"gols_mandante": 0 ,
"gols_visitante":  1
},
{
"n_rodada": 18,
"mandante": "Goiás",
"visitante": "Atlético-MG",
"gols_mandante": 1 ,
"gols_visitante":  3
},
{
"n_rodada": 18,
"mandante": "Cruzeiro",
"visitante": "Flamengo",
"gols_mandante": 1 ,
"gols_visitante":  0
},
{
"n_rodada": 18,
"mandante": "Atlético-PR",
"visitante": "Ceará",
"gols_mandante": 2 ,
"gols_visitante":  1
},
{
"n_rodada": 18,
"mandante": "Fluminense",
"visitante": "Palmeiras",
"gols_mandante": 1 ,
"gols_visitante":  1
},
{
"n_rodada": 18,
"mandante": "Santos",
"visitante": "Avaí",
"gols_mandante": 2 ,
"gols_visitante":  1
},
{
"n_rodada": 18,
"mandante": "São Paulo",
"visitante": "Atlético-GO",
"gols_mandante": 2 ,
"gols_visitante":  1
},
{
"n_rodada": 18,
"mandante": "Vasco",
"visitante": "Corinthians",
"gols_mandante": 2 ,
"gols_visitante":  0
},
{
"n_rodada": 19,
"mandante": "Botafogo",
"visitante": "Grêmio",
"gols_mandante": 2 ,
"gols_visitante":  2
},
{
"n_rodada": 19,
"mandante": "Ceará",
"visitante": "Vasco",
"gols_mandante": 0 ,
"gols_visitante":  2
},
{
"n_rodada": 19,
"mandante": "Corinthians",
"visitante": "Goiás",
"gols_mandante": 5 ,
"gols_visitante":  1
},
{
"n_rodada": 19,
"mandante": "Avaí",
"visitante": "Atlético-PR",
"gols_mandante": 0 ,
"gols_visitante":  1
},
{
"n_rodada": 19,
"mandante": "Palmeiras",
"visitante": "Cruzeiro",
"gols_mandante": 2 ,
"gols_visitante":  3
},
{
"n_rodada": 19,
"mandante": "Guarani",
"visitante": "Fluminense",
"gols_mandante": 2 ,
"gols_visitante":  1
},
{
"n_rodada": 19,
"mandante": "Flamengo",
"visitante": "Santos",
"gols_mandante": 0 ,
"gols_visitante":  0
},
{
"n_rodada": 19,
"mandante": "Atlético-MG",
"visitante": "São Paulo",
"gols_mandante": 2 ,
"gols_visitante":  3
},
{
"n_rodada": 19,
"mandante": "Atlético-GO",
"visitante": "Vitória",
"gols_mandante": 4 ,
"gols_visitante":  1
},
{
"n_rodada": 19,
"mandante": "Internacional",
"visitante": "Grêmio Prudente",
"gols_mandante": 2 ,
"gols_visitante":  0
},
{
"n_rodada": 20,
"mandante": "Fluminense",
"visitante": "Ceará",
"gols_mandante": 3 ,
"gols_visitante":  1
},
{
"n_rodada": 20,
"mandante": "Cruzeiro",
"visitante": "Internacional",
"gols_mandante": 1 ,
"gols_visitante":  0
},
{
"n_rodada": 20,
"mandante": "Grêmio",
"visitante": "Atlético-GO",
"gols_mandante": 2 ,
"gols_visitante":  0
},
{
"n_rodada": 20,
"mandante": "Goiás",
"visitante": "Guarani",
"gols_mandante": 3 ,
"gols_visitante":  1
},
{
"n_rodada": 20,
"mandante": "São Paulo",
"visitante": "Flamengo",
"gols_mandante": 2 ,
"gols_visitante":  0
},
{
"n_rodada": 20,
"mandante": "Vitória",
"visitante": "Palmeiras",
"gols_mandante": 1 ,
"gols_visitante":  1
},
{
"n_rodada": 20,
"mandante": "Atlético-PR",
"visitante": "Corinthians",
"gols_mandante": 1 ,
"gols_visitante":  1
},
{
"n_rodada": 20,
"mandante": "Santos",
"visitante": "Botafogo",
"gols_mandante": 0 ,
"gols_visitante":  1
},
{
"n_rodada": 20,
"mandante": "Vasco",
"visitante": "Atlético-MG",
"gols_mandante": 1 ,
"gols_visitante":  1
},
{
"n_rodada": 20,
"mandante": "Grêmio Prudente",
"visitante": "Avaí",
"gols_mandante": 1 ,
"gols_visitante":  1
},
{
"n_rodada": 21,
"mandante": "Corinthians",
"visitante": "Grêmio",
"gols_mandante": 0 ,
"gols_visitante":  1
},
{
"n_rodada": 21,
"mandante": "Flamengo",
"visitante": "Vitória",
"gols_mandante": 2 ,
"gols_visitante":  2
},
{
"n_rodada": 21,
"mandante": "Atlético-GO",
"visitante": "Fluminense",
"gols_mandante": 2 ,
"gols_visitante":  1
},
{
"n_rodada": 21,
"mandante": "Palmeiras",
"visitante": "Vasco",
"gols_mandante": 0 ,
"gols_visitante":  0
},
{
"n_rodada": 21,
"mandante": "Botafogo",
"visitante": "São Paulo",
"gols_mandante": 2 ,
"gols_visitante":  0
},
{
"n_rodada": 21,
"mandante": "Atlético-MG",
"visitante": "Grêmio Prudente",
"gols_mandante": 1 ,
"gols_visitante":  0
},
{
"n_rodada": 21,
"mandante": "Avaí",
"visitante": "Cruzeiro",
"gols_mandante": 1 ,
"gols_visitante":  2
},
{
"n_rodada": 21,
"mandante": "Guarani",
"visitante": "Atlético-PR",
"gols_mandante": 1 ,
"gols_visitante":  0
},
{
"n_rodada": 21,
"mandante": "Internacional",
"visitante": "Goiás",
"gols_mandante": 0 ,
"gols_visitante":  0
},
{
"n_rodada": 21,
"mandante": "Ceará",
"visitante": "Santos",
"gols_mandante": 2 ,
"gols_visitante":  1
},
{
"n_rodada": 22,
"mandante": "Santos",
"visitante": "Atlético-GO",
"gols_mandante": 4 ,
"gols_visitante":  2
},
{
"n_rodada": 22,
"mandante": "Cruzeiro",
"visitante": "Guarani",
"gols_mandante": 4 ,
"gols_visitante":  2
},
{
"n_rodada": 22,
"mandante": "Grêmio",
"visitante": "Palmeiras",
"gols_mandante": 1 ,
"gols_visitante":  2
},
{
"n_rodada": 22,
"mandante": "Goiás",
"visitante": "Botafogo",
"gols_mandante": 4 ,
"gols_visitante":  1
},
{
"n_rodada": 22,
"mandante": "Atlético-PR",
"visitante": "Atlético-MG",
"gols_mandante": 2 ,
"gols_visitante":  1
},
{
"n_rodada": 22,
"mandante": "Fluminense",
"visitante": "Corinthians",
"gols_mandante": 1 ,
"gols_visitante":  2
},
{
"n_rodada": 22,
"mandante": "Grêmio Prudente",
"visitante": "Flamengo",
"gols_mandante": 1 ,
"gols_visitante":  2
},
{
"n_rodada": 22,
"mandante": "Vitória",
"visitante": "Ceará",
"gols_mandante": 0 ,
"gols_visitante":  0
},
{
"n_rodada": 22,
"mandante": "São Paulo",
"visitante": "Internacional",
"gols_mandante": 1 ,
"gols_visitante":  3
},
{
"n_rodada": 22,
"mandante": "Vasco",
"visitante": "Avaí",
"gols_mandante": 1 ,
"gols_visitante":  1
},
{
"n_rodada": 23,
"mandante": "Corinthians",
"visitante": "Grêmio Prudente",
"gols_mandante": 3 ,
"gols_visitante":  0
},
{
"n_rodada": 23,
"mandante": "Botafogo",
"visitante": "Cruzeiro",
"gols_mandante": 2 ,
"gols_visitante":  2
},
{
"n_rodada": 23,
"mandante": "Atlético-GO",
"visitante": "Atlético-PR",
"gols_mandante": 1 ,
"gols_visitante":  2
},
{
"n_rodada": 23,
"mandante": "Palmeiras",
"visitante": "São Paulo",
"gols_mandante": 0 ,
"gols_visitante":  2
},
{
"n_rodada": 23,
"mandante": "Guarani",
"visitante": "Santos",
"gols_mandante": 0 ,
"gols_visitante":  0
},
{
"n_rodada": 23,
"mandante": "Atlético-MG",
"visitante": "Vitória",
"gols_mandante": 2 ,
"gols_visitante":  3
},
{
"n_rodada": 23,
"mandante": "Internacional",
"visitante": "Vasco",
"gols_mandante": 1 ,
"gols_visitante":  0
},
{
"n_rodada": 23,
"mandante": "Flamengo",
"visitante": "Fluminense",
"gols_mandante": 3 ,
"gols_visitante":  3
},
{
"n_rodada": 23,
"mandante": "Ceará",
"visitante": "Goiás",
"gols_mandante": 1 ,
"gols_visitante":  1
},
{
"n_rodada": 23,
"mandante": "Avaí",
"visitante": "Grêmio",
"gols_mandante": 0 ,
"gols_visitante":  3
},
{
"n_rodada": 24,
"mandante": "São Paulo",
"visitante": "Guarani",
"gols_mandante": 2 ,
"gols_visitante":  1
},
{
"n_rodada": 24,
"mandante": "Grêmio Prudente",
"visitante": "Palmeiras",
"gols_mandante": 0 ,
"gols_visitante":  1
},
{
"n_rodada": 24,
"mandante": "Cruzeiro",
"visitante": "Ceará",
"gols_mandante": 2 ,
"gols_visitante":  0
},
{
"n_rodada": 24,
"mandante": "Goiás",
"visitante": "Atlético-GO",
"gols_mandante": 1 ,
"gols_visitante":  3
},
{
"n_rodada": 24,
"mandante": "Vasco",
"visitante": "Botafogo",
"gols_mandante": 2 ,
"gols_visitante":  2
},
{
"n_rodada": 24,
"mandante": "Santos",
"visitante": "Corinthians",
"gols_mandante": 2 ,
"gols_visitante":  3
},
{
"n_rodada": 24,
"mandante": "Grêmio",
"visitante": "Flamengo",
"gols_mandante": 2 ,
"gols_visitante":  2
},
{
"n_rodada": 24,
"mandante": "Atlético-PR",
"visitante": "Internacional",
"gols_mandante": 1 ,
"gols_visitante":  0
},
{
"n_rodada": 24,
"mandante": "Fluminense",
"visitante": "Atlético-MG",
"gols_mandante": 5 ,
"gols_visitante":  1
},
{
"n_rodada": 24,
"mandante": "Vitória",
"visitante": "Avaí",
"gols_mandante": 3 ,
"gols_visitante":  0
},
{
"n_rodada": 25,
"mandante": "São Paulo",
"visitante": "Goiás",
"gols_mandante": 0 ,
"gols_visitante":  3
},
{
"n_rodada": 25,
"mandante": "Santos",
"visitante": "Cruzeiro",
"gols_mandante": 4 ,
"gols_visitante":  1
},
{
"n_rodada": 25,
"mandante": "Flamengo",
"visitante": "Palmeiras",
"gols_mandante": 1 ,
"gols_visitante":  3
},
{
"n_rodada": 25,
"mandante": "Guarani",
"visitante": "Vasco",
"gols_mandante": 1 ,
"gols_visitante":  0
},
{
"n_rodada": 25,
"mandante": "Atlético-GO",
"visitante": "Grêmio Prudente",
"gols_mandante": 3 ,
"gols_visitante":  0
},
{
"n_rodada": 25,
"mandante": "Botafogo",
"visitante": "Atlético-PR",
"gols_mandante": 1 ,
"gols_visitante":  1
},
{
"n_rodada": 25,
"mandante": "Internacional",
"visitante": "Corinthians",
"gols_mandante": 3 ,
"gols_visitante":  2
},
{
"n_rodada": 25,
"mandante": "Vitória",
"visitante": "Fluminense",
"gols_mandante": 1 ,
"gols_visitante":  2
},
{
"n_rodada": 25,
"mandante": "Atlético-MG",
"visitante": "Grêmio",
"gols_mandante": 1 ,
"gols_visitante":  2
},
{
"n_rodada": 25,
"mandante": "Avaí",
"visitante": "Ceará",
"gols_mandante": 5 ,
"gols_visitante":  0
},
{
"n_rodada": 26,
"mandante": "Vasco",
"visitante": "Santos",
"gols_mandante": 3 ,
"gols_visitante":  1
},
{
"n_rodada": 26,
"mandante": "Goiás",
"visitante": "Flamengo",
"gols_mandante": 1 ,
"gols_visitante":  1
},
{
"n_rodada": 26,
"mandante": "Palmeiras",
"visitante": "Internacional",
"gols_mandante": 2 ,
"gols_visitante":  0
},
{
"n_rodada": 26,
"mandante": "Grêmio Prudente",
"visitante": "Guarani",
"gols_mandante": 4 ,
"gols_visitante":  2
},
{
"n_rodada": 26,
"mandante": "Cruzeiro",
"visitante": "Atlético-GO",
"gols_mandante": 3 ,
"gols_visitante":  0
},
{
"n_rodada": 26,
"mandante": "Atlético-PR",
"visitante": "Vitória",
"gols_mandante": 1 ,
"gols_visitante":  0
},
{
"n_rodada": 26,
"mandante": "Fluminense",
"visitante": "Avaí",
"gols_mandante": 1 ,
"gols_visitante":  0
},
{
"n_rodada": 26,
"mandante": "Corinthians",
"visitante": "Botafogo",
"gols_mandante": 1 ,
"gols_visitante":  1
},
{
"n_rodada": 26,
"mandante": "Grêmio",
"visitante": "São Paulo",
"gols_mandante": 4 ,
"gols_visitante":  2
},
{
"n_rodada": 26,
"mandante": "Ceará",
"visitante": "Atlético-MG",
"gols_mandante": 0 ,
"gols_visitante":  0
},
{
"n_rodada": 27,
"mandante": "Vasco",
"visitante": "Goiás",
"gols_mandante": 3 ,
"gols_visitante":  2
},
{
"n_rodada": 27,
"mandante": "Corinthians",
"visitante": "Ceará",
"gols_mandante": 2 ,
"gols_visitante":  2
},
{
"n_rodada": 27,
"mandante": "Santos",
"visitante": "Palmeiras",
"gols_mandante": 1 ,
"gols_visitante":  1
},
{
"n_rodada": 27,
"mandante": "Grêmio Prudente",
"visitante": "Fluminense",
"gols_mandante": 1 ,
"gols_visitante":  1
},
{
"n_rodada": 27,
"mandante": "Vitória",
"visitante": "Grêmio",
"gols_mandante": 0 ,
"gols_visitante":  3
},
{
"n_rodada": 27,
"mandante": "Botafogo",
"visitante": "Flamengo",
"gols_mandante": 1 ,
"gols_visitante":  1
},
{
"n_rodada": 27,
"mandante": "Cruzeiro",
"visitante": "Atlético-PR",
"gols_mandante": 0 ,
"gols_visitante":  0
},
{
"n_rodada": 27,
"mandante": "Internacional",
"visitante": "Guarani",
"gols_mandante": 3 ,
"gols_visitante":  0
},
{
"n_rodada": 27,
"mandante": "Atlético-GO",
"visitante": "Atlético-MG",
"gols_mandante": 2 ,
"gols_visitante":  3
},
{
"n_rodada": 27,
"mandante": "Avaí",
"visitante": "São Paulo",
"gols_mandante": 0 ,
"gols_visitante":  0
},
{
"n_rodada": 27,
"mandante": "Vasco",
"visitante": "Goiás",
"gols_mandante": 3 ,
"gols_visitante":  2
},
{
"n_rodada": 27,
"mandante": "Corinthians",
"visitante": "Ceará",
"gols_mandante": 2 ,
"gols_visitante":  2
},
{
"n_rodada": 27,
"mandante": "Santos",
"visitante": "Palmeiras",
"gols_mandante": 1 ,
"gols_visitante":  1
},
{
"n_rodada": 27,
"mandante": "Grêmio Prudente",
"visitante": "Fluminense",
"gols_mandante": 1 ,
"gols_visitante":  1
},
{
"n_rodada": 27,
"mandante": "Vitória",
"visitante": "Grêmio",
"gols_mandante": 0 ,
"gols_visitante":  3
},
{
"n_rodada": 27,
"mandante": "Botafogo",
"visitante": "Flamengo",
"gols_mandante": 1 ,
"gols_visitante":  1
},
{
"n_rodada": 27,
"mandante": "Cruzeiro",
"visitante": "Atlético-PR",
"gols_mandante": 0 ,
"gols_visitante":  0
},
{
"n_rodada": 27,
"mandante": "Internacional",
"visitante": "Guarani",
"gols_mandante": 3 ,
"gols_visitante":  0
},
{
"n_rodada": 27,
"mandante": "Atlético-GO",
"visitante": "Atlético-MG",
"gols_mandante": 2 ,
"gols_visitante":  3
},
{
"n_rodada": 27,
"mandante": "Avaí",
"visitante": "São Paulo",
"gols_mandante": 0 ,
"gols_visitante":  0
},
{
"n_rodada": 28,
"mandante": "Fluminense",
"visitante": "Santos",
"gols_mandante": 0 ,
"gols_visitante":  3
},
{
"n_rodada": 28,
"mandante": "Guarani",
"visitante": "Botafogo",
"gols_mandante": 1 ,
"gols_visitante":  1
},
{
"n_rodada": 28,
"mandante": "Grêmio",
"visitante": "Grêmio Prudente",
"gols_mandante": 4 ,
"gols_visitante":  0
},
{
"n_rodada": 28,
"mandante": "São Paulo",
"visitante": "Vitória",
"gols_mandante": 2 ,
"gols_visitante":  0
},
{
"n_rodada": 28,
"mandante": "Atlético-MG",
"visitante": "Corinthians",
"gols_mandante": 2 ,
"gols_visitante":  1
},
{
"n_rodada": 28,
"mandante": "Ceará",
"visitante": "Internacional",
"gols_mandante": 1 ,
"gols_visitante":  0
},
{
"n_rodada": 28,
"mandante": "Atlético-PR",
"visitante": "Vasco",
"gols_mandante": 0 ,
"gols_visitante":  0
},
{
"n_rodada": 28,
"mandante": "Palmeiras",
"visitante": "Avaí",
"gols_mandante": 4 ,
"gols_visitante":  1
},
{
"n_rodada": 28,
"mandante": "Flamengo",
"visitante": "Atlético-GO",
"gols_mandante": 2 ,
"gols_visitante":  0
},
{
"n_rodada": 28,
"mandante": "Goiás",
"visitante": "Cruzeiro",
"gols_mandante": 0 ,
"gols_visitante":  1
},
{
"n_rodada": 29,
"mandante": "Santos",
"visitante": "Atlético-PR",
"gols_mandante": 2 ,
"gols_visitante":  0
},
{
"n_rodada": 29,
"mandante": "Vasco",
"visitante": "Grêmio",
"gols_mandante": 3 ,
"gols_visitante":  3
},
{
"n_rodada": 29,
"mandante": "Grêmio Prudente",
"visitante": "São Paulo",
"gols_mandante": 2 ,
"gols_visitante":  3
},
{
"n_rodada": 29,
"mandante": "Corinthians",
"visitante": "Atlético-GO",
"gols_mandante": 3 ,
"gols_visitante":  4
},
{
"n_rodada": 29,
"mandante": "Botafogo",
"visitante": "Palmeiras",
"gols_mandante": 0 ,
"gols_visitante":  0
},
{
"n_rodada": 29,
"mandante": "Cruzeiro",
"visitante": "Fluminense",
"gols_mandante": 1 ,
"gols_visitante":  0
},
{
"n_rodada": 29,
"mandante": "Goiás",
"visitante": "Vitória",
"gols_mandante": 1 ,
"gols_visitante":  0
},
{
"n_rodada": 29,
"mandante": "Avaí",
"visitante": "Flamengo",
"gols_mandante": 2 ,
"gols_visitante":  2
},
{
"n_rodada": 29,
"mandante": "Internacional",
"visitante": "Atlético-MG",
"gols_mandante": 1 ,
"gols_visitante":  0
},
{
"n_rodada": 29,
"mandante": "Ceará",
"visitante": "Guarani",
"gols_mandante": 2 ,
"gols_visitante":  0
},
{
"n_rodada": 30,
"mandante": "Flamengo",
"visitante": "Internacional",
"gols_mandante": 3 ,
"gols_visitante":  0
},
{
"n_rodada": 30,
"mandante": "Atlético-PR",
"visitante": "Goiás",
"gols_mandante": 2 ,
"gols_visitante":  1
},
{
"n_rodada": 30,
"mandante": "Guarani",
"visitante": "Corinthians",
"gols_mandante": 0 ,
"gols_visitante":  0
},
{
"n_rodada": 30,
"mandante": "Atlético-MG",
"visitante": "Avaí",
"gols_mandante": 2 ,
"gols_visitante":  0
},
{
"n_rodada": 30,
"mandante": "Grêmio",
"visitante": "Cruzeiro",
"gols_mandante": 2 ,
"gols_visitante":  1
},
{
"n_rodada": 30,
"mandante": "Atlético-GO",
"visitante": "Vasco",
"gols_mandante": 2 ,
"gols_visitante":  0
},
{
"n_rodada": 30,
"mandante": "São Paulo",
"visitante": "Santos",
"gols_mandante": 4 ,
"gols_visitante":  3
},
{
"n_rodada": 30,
"mandante": "Palmeiras",
"visitante": "Ceará",
"gols_mandante": 1 ,
"gols_visitante":  1
},
{
"n_rodada": 30,
"mandante": "Fluminense",
"visitante": "Botafogo",
"gols_mandante": 0 ,
"gols_visitante":  0
},
{
"n_rodada": 30,
"mandante": "Vitória",
"visitante": "Grêmio Prudente",
"gols_mandante": 2 ,
"gols_visitante":  0
},
{
"n_rodada": 31,
"mandante": "Botafogo",
"visitante": "Vitória",
"gols_mandante": 1 ,
"gols_visitante":  0
},
{
"n_rodada": 31,
"mandante": "Guarani",
"visitante": "Atlético-GO",
"gols_mandante": 0 ,
"gols_visitante":  1
},
{
"n_rodada": 31,
"mandante": "Corinthians",
"visitante": "Palmeiras",
"gols_mandante": 1 ,
"gols_visitante":  0
},
{
"n_rodada": 31,
"mandante": "Goiás",
"visitante": "Avaí",
"gols_mandante": 1 ,
"gols_visitante":  0
},
{
"n_rodada": 31,
"mandante": "Ceará",
"visitante": "São Paulo",
"gols_mandante": 2 ,
"gols_visitante":  0
},
{
"n_rodada": 31,
"mandante": "Atlético-PR",
"visitante": "Fluminense",
"gols_mandante": 2 ,
"gols_visitante":  2
},
{
"n_rodada": 31,
"mandante": "Santos",
"visitante": "Grêmio Prudente",
"gols_mandante": 2 ,
"gols_visitante":  3
},
{
"n_rodada": 31,
"mandante": "Vasco",
"visitante": "Flamengo",
"gols_mandante": 1 ,
"gols_visitante":  1
},
{
"n_rodada": 31,
"mandante": "Cruzeiro",
"visitante": "Atlético-MG",
"gols_mandante": 3 ,
"gols_visitante":  4
},
{
"n_rodada": 31,
"mandante": "Grêmio",
"visitante": "Internacional",
"gols_mandante": 2 ,
"gols_visitante":  2
},
{
"n_rodada": 32,
"mandante": "Flamengo",
"visitante": "Corinthians",
"gols_mandante": 1 ,
"gols_visitante":  1
},
{
"n_rodada": 32,
"mandante": "São Paulo",
"visitante": "Atlético-PR",
"gols_mandante": 2 ,
"gols_visitante":  1
},
{
"n_rodada": 32,
"mandante": "Fluminense",
"visitante": "Grêmio",
"gols_mandante": 2 ,
"gols_visitante":  0
},
{
"n_rodada": 32,
"mandante": "Atlético-GO",
"visitante": "Ceará",
"gols_mandante": 1 ,
"gols_visitante":  1
},
{
"n_rodada": 32,
"mandante": "Internacional",
"visitante": "Santos",
"gols_mandante": 1 ,
"gols_visitante":  1
},
{
"n_rodada": 32,
"mandante": "Vitória",
"visitante": "Vasco",
"gols_mandante": 4 ,
"gols_visitante":  2
},
{
"n_rodada": 32,
"mandante": "Palmeiras",
"visitante": "Goiás",
"gols_mandante": 3 ,
"gols_visitante":  2
},
{
"n_rodada": 32,
"mandante": "Grêmio Prudente",
"visitante": "Cruzeiro",
"gols_mandante": 0 ,
"gols_visitante":  2
},
{
"n_rodada": 32,
"mandante": "Atlético-MG",
"visitante": "Botafogo",
"gols_mandante": 0 ,
"gols_visitante":  2
},
{
"n_rodada": 32,
"mandante": "Avaí",
"visitante": "Guarani",
"gols_mandante": 1 ,
"gols_visitante":  0
},
{
"n_rodada": 33,
"mandante": "Santos",
"visitante": "Vitória",
"gols_mandante": 1 ,
"gols_visitante":  1
},
{
"n_rodada": 33,
"mandante": "Botafogo",
"visitante": "Atlético-GO",
"gols_mandante": 3 ,
"gols_visitante":  2
},
{
"n_rodada": 33,
"mandante": "Guarani",
"visitante": "Atlético-MG",
"gols_mandante": 0 ,
"gols_visitante":  0
},
{
"n_rodada": 33,
"mandante": "Internacional",
"visitante": "Fluminense",
"gols_mandante": 0 ,
"gols_visitante":  0
},
{
"n_rodada": 33,
"mandante": "Goiás",
"visitante": "Grêmio",
"gols_mandante": 0 ,
"gols_visitante":  2
},
{
"n_rodada": 33,
"mandante": "Corinthians",
"visitante": "Avaí",
"gols_mandante": 4 ,
"gols_visitante":  0
},
{
"n_rodada": 33,
"mandante": "Cruzeiro",
"visitante": "São Paulo",
"gols_mandante": 0 ,
"gols_visitante":  2
},
{
"n_rodada": 33,
"mandante": "Ceará",
"visitante": "Flamengo",
"gols_mandante": 2 ,
"gols_visitante":  2
},
{
"n_rodada": 33,
"mandante": "Vasco",
"visitante": "Grêmio Prudente",
"gols_mandante": 2 ,
"gols_visitante":  1
},
{
"n_rodada": 33,
"mandante": "Atlético-PR",
"visitante": "Palmeiras",
"gols_mandante": 1 ,
"gols_visitante":  0
},
{
"n_rodada": 34,
"mandante": "Atlético-MG",
"visitante": "Santos",
"gols_mandante": 2 ,
"gols_visitante":  2
},
{
"n_rodada": 34,
"mandante": "Grêmio",
"visitante": "Ceará",
"gols_mandante": 5 ,
"gols_visitante":  1
},
{
"n_rodada": 34,
"mandante": "Atlético-GO",
"visitante": "Internacional",
"gols_mandante": 2 ,
"gols_visitante":  2
},
{
"n_rodada": 34,
"mandante": "São Paulo",
"visitante": "Corinthians",
"gols_mandante": 0 ,
"gols_visitante":  2
},
{
"n_rodada": 34,
"mandante": "Grêmio Prudente",
"visitante": "Goiás",
"gols_mandante": 4 ,
"gols_visitante":  1
},
{
"n_rodada": 34,
"mandante": "Vitória",
"visitante": "Cruzeiro",
"gols_mandante": 0 ,
"gols_visitante":  1
},
{
"n_rodada": 34,
"mandante": "Avaí",
"visitante": "Botafogo",
"gols_mandante": 0 ,
"gols_visitante":  0
},
{
"n_rodada": 34,
"mandante": "Palmeiras",
"visitante": "Guarani",
"gols_mandante": 1 ,
"gols_visitante":  0
},
{
"n_rodada": 34,
"mandante": "Flamengo",
"visitante": "Atlético-PR",
"gols_mandante": 0 ,
"gols_visitante":  1
},
{
"n_rodada": 34,
"mandante": "Fluminense",
"visitante": "Vasco",
"gols_mandante": 1 ,
"gols_visitante":  0
},
{
"n_rodada": 35,
"mandante": "Ceará",
"visitante": "Botafogo",
"gols_mandante": 2 ,
"gols_visitante":  2
},
{
"n_rodada": 35,
"mandante": "Corinthians",
"visitante": "Cruzeiro",
"gols_mandante": 1 ,
"gols_visitante":  0
},
{
"n_rodada": 35,
"mandante": "Santos",
"visitante": "Grêmio",
"gols_mandante": 0 ,
"gols_visitante":  0
},
{
"n_rodada": 35,
"mandante": "Atlético-MG",
"visitante": "Flamengo",
"gols_mandante": 4 ,
"gols_visitante":  1
},
{
"n_rodada": 35,
"mandante": "Fluminense",
"visitante": "Goiás",
"gols_mandante": 1 ,
"gols_visitante":  1
},
{
"n_rodada": 35,
"mandante": "Guarani",
"visitante": "Vitória",
"gols_mandante": 1 ,
"gols_visitante":  1
},
{
"n_rodada": 35,
"mandante": "Internacional",
"visitante": "Avaí",
"gols_mandante": 2 ,
"gols_visitante":  3
},
{
"n_rodada": 35,
"mandante": "Atlético-GO",
"visitante": "Palmeiras",
"gols_mandante": 3 ,
"gols_visitante":  0
},
{
"n_rodada": 35,
"mandante": "Vasco",
"visitante": "São Paulo",
"gols_mandante": 1 ,
"gols_visitante":  1
},
{
"n_rodada": 35,
"mandante": "Atlético-PR",
"visitante": "Grêmio Prudente",
"gols_mandante": 2 ,
"gols_visitante":  1
},
{
"n_rodada": 36,
"mandante": "Flamengo",
"visitante": "Guarani",
"gols_mandante": 2 ,
"gols_visitante":  1
},
{
"n_rodada": 36,
"mandante": "Grêmio Prudente",
"visitante": "Ceará",
"gols_mandante": 1 ,
"gols_visitante":  1
},
{
"n_rodada": 36,
"mandante": "Grêmio",
"visitante": "Atlético-PR",
"gols_mandante": 3 ,
"gols_visitante":  1
},
{
"n_rodada": 36,
"mandante": "São Paulo",
"visitante": "Fluminense",
"gols_mandante": 1 ,
"gols_visitante":  4
},
{
"n_rodada": 36,
"mandante": "Palmeiras",
"visitante": "Atlético-MG",
"gols_mandante": 0 ,
"gols_visitante":  2
},
{
"n_rodada": 36,
"mandante": "Botafogo",
"visitante": "Internacional",
"gols_mandante": 1 ,
"gols_visitante":  2
},
{
"n_rodada": 36,
"mandante": "Vitória",
"visitante": "Corinthians",
"gols_mandante": 1 ,
"gols_visitante":  1
},
{
"n_rodada": 36,
"mandante": "Cruzeiro",
"visitante": "Vasco",
"gols_mandante": 3 ,
"gols_visitante":  1
},
{
"n_rodada": 36,
"mandante": "Goiás",
"visitante": "Santos",
"gols_mandante": 1 ,
"gols_visitante":  4
},
{
"n_rodada": 36,
"mandante": "Avaí",
"visitante": "Atlético-GO",
"gols_mandante": 3 ,
"gols_visitante":  0
},
{
"n_rodada": 37,
"mandante": "Corinthians",
"visitante": "Vasco",
"gols_mandante": 2 ,
"gols_visitante":  0
},
{
"n_rodada": 37,
"mandante": "Palmeiras",
"visitante": "Fluminense",
"gols_mandante": 1 ,
"gols_visitante":  2
},
{
"n_rodada": 37,
"mandante": "Flamengo",
"visitante": "Cruzeiro",
"gols_mandante": 1 ,
"gols_visitante":  2
},
{
"n_rodada": 37,
"mandante": "Botafogo",
"visitante": "Grêmio Prudente",
"gols_mandante": 3 ,
"gols_visitante":  1
},
{
"n_rodada": 37,
"mandante": "Guarani",
"visitante": "Grêmio",
"gols_mandante": 0 ,
"gols_visitante":  3
},
{
"n_rodada": 37,
"mandante": "Atlético-MG",
"visitante": "Goiás",
"gols_mandante": 3 ,
"gols_visitante":  1
},
{
"n_rodada": 37,
"mandante": "Internacional",
"visitante": "Vitória",
"gols_mandante": 1 ,
"gols_visitante":  1
},
{
"n_rodada": 37,
"mandante": "Atlético-GO",
"visitante": "São Paulo",
"gols_mandante": 1 ,
"gols_visitante":  1
},
{
"n_rodada": 37,
"mandante": "Ceará",
"visitante": "Atlético-PR",
"gols_mandante": 1 ,
"gols_visitante":  1
},
{
"n_rodada": 37,
"mandante": "Avaí",
"visitante": "Santos",
"gols_mandante": 3 ,
"gols_visitante":  2
},
{
"n_rodada": 38,
"mandante": "Grêmio Prudente",
"visitante": "Internacional",
"gols_mandante": 0 ,
"gols_visitante":  3
},
{
"n_rodada": 38,
"mandante": "São Paulo",
"visitante": "Atlético-MG",
"gols_mandante": 4 ,
"gols_visitante":  0
},
{
"n_rodada": 38,
"mandante": "Santos",
"visitante": "Flamengo",
"gols_mandante": 0 ,
"gols_visitante":  0
},
{
"n_rodada": 38,
"mandante": "Vasco",
"visitante": "Ceará",
"gols_mandante": 2 ,
"gols_visitante":  0
},
{
"n_rodada": 38,
"mandante": "Fluminense",
"visitante": "Guarani",
"gols_mandante": 1 ,
"gols_visitante":  0
},
{
"n_rodada": 38,
"mandante": "Cruzeiro",
"visitante": "Palmeiras",
"gols_mandante": 2 ,
"gols_visitante":  1
},
{
"n_rodada": 38,
"mandante": "Grêmio",
"visitante": "Botafogo",
"gols_mandante": 3 ,
"gols_visitante":  0
},
{
"n_rodada": 38,
"mandante": "Goiás",
"visitante": "Corinthians",
"gols_mandante": 1 ,
"gols_visitante":  1
},
{
"n_rodada": 38,
"mandante": "Vitória",
"visitante": "Atlético-GO",
"gols_mandante": 0 ,
"gols_visitante":  0
},
{
"n_rodada": 38,
"mandante": "Atlético-PR",
"visitante": "Avaí",
"gols_mandante": 1 ,
"gols_visitante":  0
}
]
}
