{
  "rodadas": [
    {
      "n_rodada": 1,
      "mandante": "Figueirense",
      "visitante": "Atlético-PR",
      "gols_mandante": 3,
      "gols_visitante": 6
    },
    {
      "n_rodada": 1,
      "mandante": "São Paulo",
      "visitante": "Goiás",
      "gols_mandante": 2,
      "gols_visitante": 0
    },
    {
      "n_rodada": 1,
      "mandante": "Fluminense",
      "visitante": "Cruzeiro",
      "gols_mandante": 2,
      "gols_visitante": 2
    },
    {
      "n_rodada": 1,
      "mandante": "Flamengo",
      "visitante": "Palmeiras",
      "gols_mandante": 2,
      "gols_visitante": 4
    },
    {
      "n_rodada": 1,
      "mandante": "Internacional",
      "visitante": "Botafogo",
      "gols_mandante": 2,
      "gols_visitante": 3
    },
    {
      "n_rodada": 1,
      "mandante": "Paraná",
      "visitante": "Grêmio",
      "gols_mandante": 3,
      "gols_visitante": 0
    },
    {
      "n_rodada": 1,
      "mandante": "Atlético-MG",
      "visitante": "Náutico",
      "gols_mandante": 2,
      "gols_visitante": 1
    },
    {
      "n_rodada": 1,
      "mandante": "Corinthians",
      "visitante": "Juventude",
      "gols_mandante": 1,
      "gols_visitante": 0
    },
    {
      "n_rodada": 1,
      "mandante": "América-RN",
      "visitante": "Vasco",
      "gols_mandante": 0,
      "gols_visitante": 1
    },
    {
      "n_rodada": 1,
      "mandante": "Sport",
      "visitante": "Santos",
      "gols_mandante": 4,
      "gols_visitante": 1
    },
    {
      "n_rodada": 2,
      "mandante": "Juventude",
      "visitante": "Paraná",
      "gols_mandante": 1,
      "gols_visitante": 2
    },
    {
      "n_rodada": 2,
      "mandante": "Atlético-PR",
      "visitante": "Internacional",
      "gols_mandante": 2,
      "gols_visitante": 1
    },
    {
      "n_rodada": 2,
      "mandante": "Santos",
      "visitante": "América-RN",
      "gols_mandante": 2,
      "gols_visitante": 3
    },
    {
      "n_rodada": 2,
      "mandante": "Cruzeiro",
      "visitante": "Corinthians",
      "gols_mandante": 0,
      "gols_visitante": 3
    },
    {
      "n_rodada": 2,
      "mandante": "Goiás",
      "visitante": "Flamengo",
      "gols_mandante": 1,
      "gols_visitante": 3
    },
    {
      "n_rodada": 2,
      "mandante": "Palmeiras",
      "visitante": "Figueirense",
      "gols_mandante": 2,
      "gols_visitante": 1
    },
    {
      "n_rodada": 2,
      "mandante": "Botafogo",
      "visitante": "Atlético-MG",
      "gols_mandante": 2,
      "gols_visitante": 1
    },
    {
      "n_rodada": 2,
      "mandante": "Grêmio",
      "visitante": "Fluminense",
      "gols_mandante": 2,
      "gols_visitante": 0
    },
    {
      "n_rodada": 2,
      "mandante": "Náutico",
      "visitante": "São Paulo",
      "gols_mandante": 1,
      "gols_visitante": 0
    },
    {
      "n_rodada": 2,
      "mandante": "Vasco",
      "visitante": "Sport",
      "gols_mandante": 3,
      "gols_visitante": 1
    },
    {
      "n_rodada": 3,
      "mandante": "América-RN",
      "visitante": "Figueirense",
      "gols_mandante": 0,
      "gols_visitante": 1
    },
    {
      "n_rodada": 3,
      "mandante": "Corinthians",
      "visitante": "Atlético-MG",
      "gols_mandante": 0,
      "gols_visitante": 0
    },
    {
      "n_rodada": 3,
      "mandante": "Fluminense",
      "visitante": "Internacional",
      "gols_mandante": 3,
      "gols_visitante": 0
    },
    {
      "n_rodada": 3,
      "mandante": "São Paulo",
      "visitante": "Palmeiras",
      "gols_mandante": 0,
      "gols_visitante": 0
    },
    {
      "n_rodada": 3,
      "mandante": "Atlético-PR",
      "visitante": "Santos",
      "gols_mandante": 0,
      "gols_visitante": 1
    },
    {
      "n_rodada": 3,
      "mandante": "Grêmio",
      "visitante": "Sport",
      "gols_mandante": 1,
      "gols_visitante": 0
    },
    {
      "n_rodada": 3,
      "mandante": "Náutico",
      "visitante": "Vasco",
      "gols_mandante": 2,
      "gols_visitante": 2
    },
    {
      "n_rodada": 3,
      "mandante": "Cruzeiro",
      "visitante": "Paraná",
      "gols_mandante": 3,
      "gols_visitante": 4
    },
    {
      "n_rodada": 3,
      "mandante": "Goiás",
      "visitante": "Juventude",
      "gols_mandante": 3,
      "gols_visitante": 1
    },
    {
      "n_rodada": 3,
      "mandante": "Flamengo",
      "visitante": "Botafogo",
      "gols_mandante": 2,
      "gols_visitante": 2
    },
    {
      "n_rodada": 4,
      "mandante": "Atlético-MG",
      "visitante": "Atlético-PR",
      "gols_mandante": 1,
      "gols_visitante": 1
    },
    {
      "n_rodada": 4,
      "mandante": "Botafogo",
      "visitante": "Grêmio",
      "gols_mandante": 3,
      "gols_visitante": 0
    },
    {
      "n_rodada": 4,
      "mandante": "Figueirense",
      "visitante": "Goiás",
      "gols_mandante": 2,
      "gols_visitante": 1
    },
    {
      "n_rodada": 4,
      "mandante": "Santos",
      "visitante": "Corinthians",
      "gols_mandante": 1,
      "gols_visitante": 1
    },
    {
      "n_rodada": 4,
      "mandante": "Palmeiras",
      "visitante": "Cruzeiro",
      "gols_mandante": 1,
      "gols_visitante": 3
    },
    {
      "n_rodada": 4,
      "mandante": "Juventude",
      "visitante": "América-RN",
      "gols_mandante": 3,
      "gols_visitante": 0
    },
    {
      "n_rodada": 4,
      "mandante": "Sport",
      "visitante": "Flamengo",
      "gols_mandante": 2,
      "gols_visitante": 2
    },
    {
      "n_rodada": 4,
      "mandante": "Paraná",
      "visitante": "São Paulo",
      "gols_mandante": 0,
      "gols_visitante": 1
    },
    {
      "n_rodada": 4,
      "mandante": "Vasco",
      "visitante": "Fluminense",
      "gols_mandante": 1,
      "gols_visitante": 1
    },
    {
      "n_rodada": 4,
      "mandante": "Internacional",
      "visitante": "Náutico",
      "gols_mandante": 2,
      "gols_visitante": 0
    },
    {
      "n_rodada": 5,
      "mandante": "Palmeiras",
      "visitante": "Botafogo",
      "gols_mandante": 1,
      "gols_visitante": 1
    },
    {
      "n_rodada": 5,
      "mandante": "Náutico",
      "visitante": "Paraná",
      "gols_mandante": 4,
      "gols_visitante": 4
    },
    {
      "n_rodada": 5,
      "mandante": "Vasco",
      "visitante": "Grêmio",
      "gols_mandante": 4,
      "gols_visitante": 0
    },
    {
      "n_rodada": 5,
      "mandante": "Figueirense",
      "visitante": "Flamengo",
      "gols_mandante": 4,
      "gols_visitante": 0
    },
    {
      "n_rodada": 5,
      "mandante": "Fluminense",
      "visitante": "Sport",
      "gols_mandante": 3,
      "gols_visitante": 0
    },
    {
      "n_rodada": 5,
      "mandante": "América-RN",
      "visitante": "Corinthians",
      "gols_mandante": 1,
      "gols_visitante": 2
    },
    {
      "n_rodada": 5,
      "mandante": "Atlético-PR",
      "visitante": "Goiás",
      "gols_mandante": 0,
      "gols_visitante": 3
    },
    {
      "n_rodada": 5,
      "mandante": "São Paulo",
      "visitante": "Atlético-MG",
      "gols_mandante": 0,
      "gols_visitante": 1
    },
    {
      "n_rodada": 5,
      "mandante": "Internacional",
      "visitante": "Santos",
      "gols_mandante": 1,
      "gols_visitante": 0
    },
    {
      "n_rodada": 5,
      "mandante": "Cruzeiro",
      "visitante": "Juventude",
      "gols_mandante": 2,
      "gols_visitante": 3
    },
    {
      "n_rodada": 12,
      "mandante": "Botafogo",
      "visitante": "Vasco",
      "gols_mandante": 4,
      "gols_visitante": 0
    },
    {
      "n_rodada": 6,
      "mandante": "Grêmio",
      "visitante": "Cruzeiro",
      "gols_mandante": 0,
      "gols_visitante": 2
    },
    {
      "n_rodada": 6,
      "mandante": "Flamengo",
      "visitante": "Internacional",
      "gols_mandante": 2,
      "gols_visitante": 2
    },
    {
      "n_rodada": 6,
      "mandante": "Corinthians",
      "visitante": "Paraná",
      "gols_mandante": 0,
      "gols_visitante": 0
    },
    {
      "n_rodada": 6,
      "mandante": "Atlético-MG",
      "visitante": "Figueirense",
      "gols_mandante": 4,
      "gols_visitante": 1
    },
    {
      "n_rodada": 6,
      "mandante": "Atlético-PR",
      "visitante": "Fluminense",
      "gols_mandante": 1,
      "gols_visitante": 1
    },
    {
      "n_rodada": 6,
      "mandante": "São Paulo",
      "visitante": "Vasco",
      "gols_mandante": 2,
      "gols_visitante": 0
    },
    {
      "n_rodada": 6,
      "mandante": "Goiás",
      "visitante": "Palmeiras",
      "gols_mandante": 3,
      "gols_visitante": 1
    },
    {
      "n_rodada": 6,
      "mandante": "Botafogo",
      "visitante": "Náutico",
      "gols_mandante": 3,
      "gols_visitante": 1
    },
    {
      "n_rodada": 6,
      "mandante": "Sport",
      "visitante": "América-RN",
      "gols_mandante": 2,
      "gols_visitante": 2
    },
    {
      "n_rodada": 6,
      "mandante": "Juventude",
      "visitante": "Santos",
      "gols_mandante": 0,
      "gols_visitante": 2
    },
    {
      "n_rodada": 7,
      "mandante": "Paraná",
      "visitante": "Sport",
      "gols_mandante": 1,
      "gols_visitante": 0
    },
    {
      "n_rodada": 7,
      "mandante": "Juventude",
      "visitante": "Figueirense",
      "gols_mandante": 1,
      "gols_visitante": 1
    },
    {
      "n_rodada": 7,
      "mandante": "Santos",
      "visitante": "São Paulo",
      "gols_mandante": 0,
      "gols_visitante": 2
    },
    {
      "n_rodada": 7,
      "mandante": "Cruzeiro",
      "visitante": "Atlético-MG",
      "gols_mandante": 4,
      "gols_visitante": 2
    },
    {
      "n_rodada": 7,
      "mandante": "Palmeiras",
      "visitante": "Atlético-PR",
      "gols_mandante": 0,
      "gols_visitante": 2
    },
    {
      "n_rodada": 7,
      "mandante": "América-RN",
      "visitante": "Fluminense",
      "gols_mandante": 0,
      "gols_visitante": 1
    },
    {
      "n_rodada": 7,
      "mandante": "Internacional",
      "visitante": "Grêmio",
      "gols_mandante": 0,
      "gols_visitante": 2
    },
    {
      "n_rodada": 7,
      "mandante": "Náutico",
      "visitante": "Goiás",
      "gols_mandante": 0,
      "gols_visitante": 2
    },
    {
      "n_rodada": 8,
      "mandante": "Figueirense",
      "visitante": "São Paulo",
      "gols_mandante": 0,
      "gols_visitante": 0
    },
    {
      "n_rodada": 8,
      "mandante": "Sport",
      "visitante": "Náutico",
      "gols_mandante": 4,
      "gols_visitante": 1
    },
    {
      "n_rodada": 8,
      "mandante": "Santos",
      "visitante": "Grêmio",
      "gols_mandante": 0,
      "gols_visitante": 0
    },
    {
      "n_rodada": 8,
      "mandante": "Cruzeiro",
      "visitante": "Vasco",
      "gols_mandante": 3,
      "gols_visitante": 1
    },
    {
      "n_rodada": 8,
      "mandante": "América-RN",
      "visitante": "Goiás",
      "gols_mandante": 0,
      "gols_visitante": 3
    },
    {
      "n_rodada": 8,
      "mandante": "Internacional",
      "visitante": "Atlético-MG",
      "gols_mandante": 1,
      "gols_visitante": 1
    },
    {
      "n_rodada": 8,
      "mandante": "Paraná",
      "visitante": "Atlético-PR",
      "gols_mandante": 2,
      "gols_visitante": 2
    },
    {
      "n_rodada": 8,
      "mandante": "Fluminense",
      "visitante": "Botafogo",
      "gols_mandante": 1,
      "gols_visitante": 2
    },
    {
      "n_rodada": 8,
      "mandante": "Corinthians",
      "visitante": "Palmeiras",
      "gols_mandante": 0,
      "gols_visitante": 1
    },
    {
      "n_rodada": 9,
      "mandante": "Palmeiras",
      "visitante": "América-RN",
      "gols_mandante": 2,
      "gols_visitante": 0
    },
    {
      "n_rodada": 9,
      "mandante": "São Paulo",
      "visitante": "Internacional",
      "gols_mandante": 1,
      "gols_visitante": 0
    },
    {
      "n_rodada": 9,
      "mandante": "Figueirense",
      "visitante": "Cruzeiro",
      "gols_mandante": 2,
      "gols_visitante": 1
    },
    {
      "n_rodada": 9,
      "mandante": "Grêmio",
      "visitante": "Juventude",
      "gols_mandante": 3,
      "gols_visitante": 1
    },
    {
      "n_rodada": 9,
      "mandante": "Atlético-PR",
      "visitante": "Náutico",
      "gols_mandante": 1,
      "gols_visitante": 1
    },
    {
      "n_rodada": 9,
      "mandante": "Fluminense",
      "visitante": "Paraná",
      "gols_mandante": 0,
      "gols_visitante": 0
    },
    {
      "n_rodada": 9,
      "mandante": "Goiás",
      "visitante": "Botafogo",
      "gols_mandante": 1,
      "gols_visitante": 1
    },
    {
      "n_rodada": 9,
      "mandante": "Sport",
      "visitante": "Corinthians",
      "gols_mandante": 2,
      "gols_visitante": 1
    },
    {
      "n_rodada": 9,
      "mandante": "Atlético-MG",
      "visitante": "Flamengo",
      "gols_mandante": 1,
      "gols_visitante": 1
    },
    {
      "n_rodada": 9,
      "mandante": "Vasco",
      "visitante": "Santos",
      "gols_mandante": 4,
      "gols_visitante": 0
    },
    {
      "n_rodada": 10,
      "mandante": "Paraná",
      "visitante": "América-RN",
      "gols_mandante": 0,
      "gols_visitante": 1
    },
    {
      "n_rodada": 10,
      "mandante": "Santos",
      "visitante": "Cruzeiro",
      "gols_mandante": 4,
      "gols_visitante": 1
    },
    {
      "n_rodada": 10,
      "mandante": "Corinthians",
      "visitante": "Fluminense",
      "gols_mandante": 1,
      "gols_visitante": 1
    },
    {
      "n_rodada": 10,
      "mandante": "Atlético-MG",
      "visitante": "Grêmio",
      "gols_mandante": 0,
      "gols_visitante": 1
    },
    {
      "n_rodada": 10,
      "mandante": "Botafogo",
      "visitante": "Atlético-PR",
      "gols_mandante": 2,
      "gols_visitante": 0
    },
    {
      "n_rodada": 10,
      "mandante": "Goiás",
      "visitante": "Sport",
      "gols_mandante": 3,
      "gols_visitante": 2
    },
    {
      "n_rodada": 10,
      "mandante": "Internacional",
      "visitante": "Figueirense",
      "gols_mandante": 2,
      "gols_visitante": 1
    },
    {
      "n_rodada": 10,
      "mandante": "Náutico",
      "visitante": "Palmeiras",
      "gols_mandante": 0,
      "gols_visitante": 1
    },
    {
      "n_rodada": 10,
      "mandante": "Juventude",
      "visitante": "Vasco",
      "gols_mandante": 2,
      "gols_visitante": 0
    },
    {
      "n_rodada": 29,
      "mandante": "São Paulo",
      "visitante": "Flamengo",
      "gols_mandante": 0,
      "gols_visitante": 0
    },
    {
      "n_rodada": 11,
      "mandante": "Paraná",
      "visitante": "Figueirense",
      "gols_mandante": 1,
      "gols_visitante": 2
    },
    {
      "n_rodada": 11,
      "mandante": "Juventude",
      "visitante": "Náutico",
      "gols_mandante": 1,
      "gols_visitante": 1
    },
    {
      "n_rodada": 11,
      "mandante": "Vasco",
      "visitante": "Atlético-PR",
      "gols_mandante": 1,
      "gols_visitante": 0
    },
    {
      "n_rodada": 11,
      "mandante": "Santos",
      "visitante": "Botafogo",
      "gols_mandante": 3,
      "gols_visitante": 0
    },
    {
      "n_rodada": 11,
      "mandante": "Sport",
      "visitante": "Atlético-MG",
      "gols_mandante": 2,
      "gols_visitante": 0
    },
    {
      "n_rodada": 11,
      "mandante": "Grêmio",
      "visitante": "Palmeiras",
      "gols_mandante": 1,
      "gols_visitante": 1
    },
    {
      "n_rodada": 11,
      "mandante": "Cruzeiro",
      "visitante": "Goiás",
      "gols_mandante": 2,
      "gols_visitante": 1
    },
    {
      "n_rodada": 11,
      "mandante": "América-RN",
      "visitante": "Internacional",
      "gols_mandante": 1,
      "gols_visitante": 2
    },
    {
      "n_rodada": 11,
      "mandante": "Corinthians",
      "visitante": "São Paulo",
      "gols_mandante": 1,
      "gols_visitante": 1
    },
    {
      "n_rodada": 12,
      "mandante": "Figueirense",
      "visitante": "Sport",
      "gols_mandante": 0,
      "gols_visitante": 1
    },
    {
      "n_rodada": 12,
      "mandante": "Atlético-MG",
      "visitante": "América-RN",
      "gols_mandante": 4,
      "gols_visitante": 1
    },
    {
      "n_rodada": 12,
      "mandante": "Atlético-PR",
      "visitante": "Juventude",
      "gols_mandante": 4,
      "gols_visitante": 0
    },
    {
      "n_rodada": 12,
      "mandante": "Internacional",
      "visitante": "Corinthians",
      "gols_mandante": 3,
      "gols_visitante": 0
    },
    {
      "n_rodada": 12,
      "mandante": "Náutico",
      "visitante": "Cruzeiro",
      "gols_mandante": 1,
      "gols_visitante": 4
    },
    {
      "n_rodada": 12,
      "mandante": "São Paulo",
      "visitante": "Fluminense",
      "gols_mandante": 0,
      "gols_visitante": 1
    },
    {
      "n_rodada": 12,
      "mandante": "Flamengo",
      "visitante": "Paraná",
      "gols_mandante": 1,
      "gols_visitante": 2
    },
    {
      "n_rodada": 12,
      "mandante": "Goiás",
      "visitante": "Grêmio",
      "gols_mandante": 0,
      "gols_visitante": 0
    },
    {
      "n_rodada": 12,
      "mandante": "Palmeiras",
      "visitante": "Santos",
      "gols_mandante": 2,
      "gols_visitante": 2
    },
    {
      "n_rodada": 13,
      "mandante": "América-RN",
      "visitante": "Atlético-PR",
      "gols_mandante": 2,
      "gols_visitante": 1
    },
    {
      "n_rodada": 13,
      "mandante": "Juventude",
      "visitante": "Internacional",
      "gols_mandante": 2,
      "gols_visitante": 0
    },
    {
      "n_rodada": 13,
      "mandante": "Vasco",
      "visitante": "Atlético-MG",
      "gols_mandante": 4,
      "gols_visitante": 0
    },
    {
      "n_rodada": 13,
      "mandante": "Corinthians",
      "visitante": "Náutico",
      "gols_mandante": 0,
      "gols_visitante": 3
    },
    {
      "n_rodada": 13,
      "mandante": "Fluminense",
      "visitante": "Goiás",
      "gols_mandante": 3,
      "gols_visitante": 0
    },
    {
      "n_rodada": 13,
      "mandante": "Grêmio",
      "visitante": "Flamengo",
      "gols_mandante": 1,
      "gols_visitante": 0
    },
    {
      "n_rodada": 13,
      "mandante": "Cruzeiro",
      "visitante": "São Paulo",
      "gols_mandante": 1,
      "gols_visitante": 2
    },
    {
      "n_rodada": 13,
      "mandante": "Paraná",
      "visitante": "Palmeiras",
      "gols_mandante": 1,
      "gols_visitante": 0
    },
    {
      "n_rodada": 13,
      "mandante": "Sport",
      "visitante": "Botafogo",
      "gols_mandante": 3,
      "gols_visitante": 3
    },
    {
      "n_rodada": 13,
      "mandante": "Santos",
      "visitante": "Figueirense",
      "gols_mandante": 3,
      "gols_visitante": 1
    },
    {
      "n_rodada": 14,
      "mandante": "Atlético-PR",
      "visitante": "Cruzeiro",
      "gols_mandante": 2,
      "gols_visitante": 2
    },
    {
      "n_rodada": 14,
      "mandante": "Goiás",
      "visitante": "Santos",
      "gols_mandante": 1,
      "gols_visitante": 0
    },
    {
      "n_rodada": 14,
      "mandante": "Náutico",
      "visitante": "Grêmio",
      "gols_mandante": 0,
      "gols_visitante": 2
    },
    {
      "n_rodada": 14,
      "mandante": "Flamengo",
      "visitante": "América-RN",
      "gols_mandante": 3,
      "gols_visitante": 1
    },
    {
      "n_rodada": 14,
      "mandante": "Palmeiras",
      "visitante": "Vasco",
      "gols_mandante": 3,
      "gols_visitante": 2
    },
    {
      "n_rodada": 14,
      "mandante": "Figueirense",
      "visitante": "Corinthians",
      "gols_mandante": 2,
      "gols_visitante": 2
    },
    {
      "n_rodada": 14,
      "mandante": "Internacional",
      "visitante": "Paraná",
      "gols_mandante": 1,
      "gols_visitante": 0
    },
    {
      "n_rodada": 14,
      "mandante": "Botafogo",
      "visitante": "Juventude",
      "gols_mandante": 3,
      "gols_visitante": 1
    },
    {
      "n_rodada": 14,
      "mandante": "Atlético-MG",
      "visitante": "Fluminense",
      "gols_mandante": 3,
      "gols_visitante": 0
    },
    {
      "n_rodada": 14,
      "mandante": "São Paulo",
      "visitante": "Sport",
      "gols_mandante": 3,
      "gols_visitante": 1
    },
    {
      "n_rodada": 15,
      "mandante": "Santos",
      "visitante": "Náutico",
      "gols_mandante": 1,
      "gols_visitante": 2
    },
    {
      "n_rodada": 15,
      "mandante": "Vasco",
      "visitante": "Goiás",
      "gols_mandante": 4,
      "gols_visitante": 1
    },
    {
      "n_rodada": 15,
      "mandante": "Grêmio",
      "visitante": "Atlético-PR",
      "gols_mandante": 1,
      "gols_visitante": 1
    },
    {
      "n_rodada": 15,
      "mandante": "Corinthians",
      "visitante": "Flamengo",
      "gols_mandante": 2,
      "gols_visitante": 2
    },
    {
      "n_rodada": 15,
      "mandante": "Paraná",
      "visitante": "Atlético-MG",
      "gols_mandante": 1,
      "gols_visitante": 3
    },
    {
      "n_rodada": 15,
      "mandante": "Juventude",
      "visitante": "Palmeiras",
      "gols_mandante": 1,
      "gols_visitante": 1
    },
    {
      "n_rodada": 15,
      "mandante": "Sport",
      "visitante": "Internacional",
      "gols_mandante": 1,
      "gols_visitante": 5
    },
    {
      "n_rodada": 15,
      "mandante": "Cruzeiro",
      "visitante": "Botafogo",
      "gols_mandante": 3,
      "gols_visitante": 2
    },
    {
      "n_rodada": 15,
      "mandante": "América-RN",
      "visitante": "São Paulo",
      "gols_mandante": 0,
      "gols_visitante": 1
    },
    {
      "n_rodada": 15,
      "mandante": "Fluminense",
      "visitante": "Figueirense",
      "gols_mandante": 1,
      "gols_visitante": 1
    },
    {
      "n_rodada": 16,
      "mandante": "Náutico",
      "visitante": "Fluminense",
      "gols_mandante": 0,
      "gols_visitante": 0
    },
    {
      "n_rodada": 16,
      "mandante": "Goiás",
      "visitante": "Paraná",
      "gols_mandante": 2,
      "gols_visitante": 0
    },
    {
      "n_rodada": 16,
      "mandante": "Palmeiras",
      "visitante": "Sport",
      "gols_mandante": 1,
      "gols_visitante": 2
    },
    {
      "n_rodada": 16,
      "mandante": "Botafogo",
      "visitante": "América-RN",
      "gols_mandante": 4,
      "gols_visitante": 2
    },
    {
      "n_rodada": 16,
      "mandante": "Atlético-MG",
      "visitante": "Santos",
      "gols_mandante": 1,
      "gols_visitante": 2
    },
    {
      "n_rodada": 16,
      "mandante": "Atlético-PR",
      "visitante": "Corinthians",
      "gols_mandante": 2,
      "gols_visitante": 2
    },
    {
      "n_rodada": 16,
      "mandante": "Internacional",
      "visitante": "Vasco",
      "gols_mandante": 0,
      "gols_visitante": 2
    },
    {
      "n_rodada": 16,
      "mandante": "São Paulo",
      "visitante": "Juventude",
      "gols_mandante": 3,
      "gols_visitante": 1
    },
    {
      "n_rodada": 16,
      "mandante": "Figueirense",
      "visitante": "Grêmio",
      "gols_mandante": 1,
      "gols_visitante": 0
    },
    {
      "n_rodada": 17,
      "mandante": "Sport",
      "visitante": "Atlético-PR",
      "gols_mandante": 3,
      "gols_visitante": 2
    },
    {
      "n_rodada": 17,
      "mandante": "América-RN",
      "visitante": "Náutico",
      "gols_mandante": 1,
      "gols_visitante": 5
    },
    {
      "n_rodada": 17,
      "mandante": "Corinthians",
      "visitante": "Goiás",
      "gols_mandante": 1,
      "gols_visitante": 0
    },
    {
      "n_rodada": 17,
      "mandante": "Santos",
      "visitante": "Flamengo",
      "gols_mandante": 3,
      "gols_visitante": 0
    },
    {
      "n_rodada": 17,
      "mandante": "Cruzeiro",
      "visitante": "Internacional",
      "gols_mandante": 3,
      "gols_visitante": 2
    },
    {
      "n_rodada": 17,
      "mandante": "Fluminense",
      "visitante": "Palmeiras",
      "gols_mandante": 0,
      "gols_visitante": 1
    },
    {
      "n_rodada": 17,
      "mandante": "Juventude",
      "visitante": "Atlético-MG",
      "gols_mandante": 1,
      "gols_visitante": 2
    },
    {
      "n_rodada": 17,
      "mandante": "Grêmio",
      "visitante": "São Paulo",
      "gols_mandante": 0,
      "gols_visitante": 2
    },
    {
      "n_rodada": 17,
      "mandante": "Vasco",
      "visitante": "Figueirense",
      "gols_mandante": 2,
      "gols_visitante": 2
    },
    {
      "n_rodada": 17,
      "mandante": "Paraná",
      "visitante": "Botafogo",
      "gols_mandante": 0,
      "gols_visitante": 0
    },
    {
      "n_rodada": 18,
      "mandante": "Cruzeiro",
      "visitante": "Sport",
      "gols_mandante": 2,
      "gols_visitante": 0
    },
    {
      "n_rodada": 18,
      "mandante": "Juventude",
      "visitante": "Fluminense",
      "gols_mandante": 0,
      "gols_visitante": 0
    },
    {
      "n_rodada": 18,
      "mandante": "Náutico",
      "visitante": "Figueirense",
      "gols_mandante": 4,
      "gols_visitante": 2
    },
    {
      "n_rodada": 18,
      "mandante": "Goiás",
      "visitante": "Atlético-MG",
      "gols_mandante": 3,
      "gols_visitante": 2
    },
    {
      "n_rodada": 18,
      "mandante": "Atlético-PR",
      "visitante": "Flamengo",
      "gols_mandante": 2,
      "gols_visitante": 0
    },
    {
      "n_rodada": 18,
      "mandante": "Botafogo",
      "visitante": "São Paulo",
      "gols_mandante": 0,
      "gols_visitante": 2
    },
    {
      "n_rodada": 18,
      "mandante": "Vasco",
      "visitante": "Corinthians",
      "gols_mandante": 2,
      "gols_visitante": 0
    },
    {
      "n_rodada": 18,
      "mandante": "Grêmio",
      "visitante": "América-RN",
      "gols_mandante": 3,
      "gols_visitante": 0
    },
    {
      "n_rodada": 18,
      "mandante": "Palmeiras",
      "visitante": "Internacional",
      "gols_mandante": 1,
      "gols_visitante": 1
    },
    {
      "n_rodada": 18,
      "mandante": "Santos",
      "visitante": "Paraná",
      "gols_mandante": 2,
      "gols_visitante": 0
    },
    {
      "n_rodada": 19,
      "mandante": "Sport",
      "visitante": "Juventude",
      "gols_mandante": 3,
      "gols_visitante": 0
    },
    {
      "n_rodada": 19,
      "mandante": "São Paulo",
      "visitante": "Atlético-PR",
      "gols_mandante": 2,
      "gols_visitante": 0
    },
    {
      "n_rodada": 19,
      "mandante": "Flamengo",
      "visitante": "Náutico",
      "gols_mandante": 2,
      "gols_visitante": 1
    },
    {
      "n_rodada": 19,
      "mandante": "Corinthians",
      "visitante": "Grêmio",
      "gols_mandante": 2,
      "gols_visitante": 1
    },
    {
      "n_rodada": 19,
      "mandante": "Atlético-MG",
      "visitante": "Palmeiras",
      "gols_mandante": 1,
      "gols_visitante": 2
    },
    {
      "n_rodada": 19,
      "mandante": "Figueirense",
      "visitante": "Botafogo",
      "gols_mandante": 1,
      "gols_visitante": 1
    },
    {
      "n_rodada": 19,
      "mandante": "Internacional",
      "visitante": "Goiás",
      "gols_mandante": 1,
      "gols_visitante": 0
    },
    {
      "n_rodada": 19,
      "mandante": "América-RN",
      "visitante": "Cruzeiro",
      "gols_mandante": 1,
      "gols_visitante": 2
    },
    {
      "n_rodada": 19,
      "mandante": "Fluminense",
      "visitante": "Santos",
      "gols_mandante": 3,
      "gols_visitante": 0
    },
    {
      "n_rodada": 19,
      "mandante": "Paraná",
      "visitante": "Vasco",
      "gols_mandante": 0,
      "gols_visitante": 0
    },
    {
      "n_rodada": 7,
      "mandante": "Botafogo",
      "visitante": "Corinthians",
      "gols_mandante": 2,
      "gols_visitante": 3
    },
    {
      "n_rodada": 11,
      "mandante": "Fluminense",
      "visitante": "Flamengo",
      "gols_mandante": 0,
      "gols_visitante": 1
    },
    {
      "n_rodada": 20,
      "mandante": "Santos",
      "visitante": "Sport",
      "gols_mandante": 2,
      "gols_visitante": 0
    },
    {
      "n_rodada": 20,
      "mandante": "Atlético-PR",
      "visitante": "Figueirense",
      "gols_mandante": 1,
      "gols_visitante": 1
    },
    {
      "n_rodada": 20,
      "mandante": "Grêmio",
      "visitante": "Paraná",
      "gols_mandante": 2,
      "gols_visitante": 0
    },
    {
      "n_rodada": 20,
      "mandante": "Palmeiras",
      "visitante": "Flamengo",
      "gols_mandante": 2,
      "gols_visitante": 1
    },
    {
      "n_rodada": 20,
      "mandante": "Náutico",
      "visitante": "Atlético-MG",
      "gols_mandante": 0,
      "gols_visitante": 1
    },
    {
      "n_rodada": 20,
      "mandante": "Juventude",
      "visitante": "Corinthians",
      "gols_mandante": 2,
      "gols_visitante": 2
    },
    {
      "n_rodada": 20,
      "mandante": "Vasco",
      "visitante": "América-RN",
      "gols_mandante": 2,
      "gols_visitante": 0
    },
    {
      "n_rodada": 20,
      "mandante": "Botafogo",
      "visitante": "Internacional",
      "gols_mandante": 1,
      "gols_visitante": 1
    },
    {
      "n_rodada": 20,
      "mandante": "Cruzeiro",
      "visitante": "Fluminense",
      "gols_mandante": 4,
      "gols_visitante": 2
    },
    {
      "n_rodada": 20,
      "mandante": "Goiás",
      "visitante": "São Paulo",
      "gols_mandante": 0,
      "gols_visitante": 0
    },
    {
      "n_rodada": 8,
      "mandante": "Flamengo",
      "visitante": "Juventude",
      "gols_mandante": 4,
      "gols_visitante": 0
    },
    {
      "n_rodada": 21,
      "mandante": "Corinthians",
      "visitante": "Cruzeiro",
      "gols_mandante": 0,
      "gols_visitante": 3
    },
    {
      "n_rodada": 21,
      "mandante": "Fluminense",
      "visitante": "Grêmio",
      "gols_mandante": 1,
      "gols_visitante": 1
    },
    {
      "n_rodada": 21,
      "mandante": "Internacional",
      "visitante": "Atlético-PR",
      "gols_mandante": 1,
      "gols_visitante": 0
    },
    {
      "n_rodada": 21,
      "mandante": "Atlético-MG",
      "visitante": "Botafogo",
      "gols_mandante": 1,
      "gols_visitante": 2
    },
    {
      "n_rodada": 21,
      "mandante": "São Paulo",
      "visitante": "Náutico",
      "gols_mandante": 5,
      "gols_visitante": 0
    },
    {
      "n_rodada": 21,
      "mandante": "Paraná",
      "visitante": "Juventude",
      "gols_mandante": 3,
      "gols_visitante": 1
    },
    {
      "n_rodada": 21,
      "mandante": "Figueirense",
      "visitante": "Palmeiras",
      "gols_mandante": 1,
      "gols_visitante": 2
    },
    {
      "n_rodada": 21,
      "mandante": "América-RN",
      "visitante": "Santos",
      "gols_mandante": 1,
      "gols_visitante": 4
    },
    {
      "n_rodada": 21,
      "mandante": "Sport",
      "visitante": "Vasco",
      "gols_mandante": 0,
      "gols_visitante": 0
    },
    {
      "n_rodada": 21,
      "mandante": "Flamengo",
      "visitante": "Goiás",
      "gols_mandante": 3,
      "gols_visitante": 1
    },
    {
      "n_rodada": 30,
      "mandante": "Palmeiras",
      "visitante": "Grêmio",
      "gols_mandante": 2,
      "gols_visitante": 0
    },
    {
      "n_rodada": 30,
      "mandante": "Botafogo",
      "visitante": "Santos",
      "gols_mandante": 1,
      "gols_visitante": 2
    },
    {
      "n_rodada": 30,
      "mandante": "Náutico",
      "visitante": "Juventude",
      "gols_mandante": 4,
      "gols_visitante": 1
    },
    {
      "n_rodada": 30,
      "mandante": "São Paulo",
      "visitante": "Corinthians",
      "gols_mandante": 0,
      "gols_visitante": 1
    },
    {
      "n_rodada": 30,
      "mandante": "Atlético-PR",
      "visitante": "Vasco",
      "gols_mandante": 1,
      "gols_visitante": 0
    },
    {
      "n_rodada": 30,
      "mandante": "Atlético-MG",
      "visitante": "Sport",
      "gols_mandante": 3,
      "gols_visitante": 1
    },
    {
      "n_rodada": 30,
      "mandante": "Internacional",
      "visitante": "América-RN",
      "gols_mandante": 2,
      "gols_visitante": 0
    },
    {
      "n_rodada": 30,
      "mandante": "Goiás",
      "visitante": "Cruzeiro",
      "gols_mandante": 0,
      "gols_visitante": 0
    },
    {
      "n_rodada": 30,
      "mandante": "Figueirense",
      "visitante": "Paraná",
      "gols_mandante": 4,
      "gols_visitante": 0
    },
    {
      "n_rodada": 30,
      "mandante": "Flamengo",
      "visitante": "Fluminense",
      "gols_mandante": 0,
      "gols_visitante": 2
    },
    {
      "n_rodada": 31,
      "mandante": "Sport",
      "visitante": "Figueirense",
      "gols_mandante": 0,
      "gols_visitante": 0
    },
    {
      "n_rodada": 31,
      "mandante": "Cruzeiro",
      "visitante": "Náutico",
      "gols_mandante": 2,
      "gols_visitante": 2
    },
    {
      "n_rodada": 31,
      "mandante": "Juventude",
      "visitante": "Atlético-PR",
      "gols_mandante": 0,
      "gols_visitante": 0
    },
    {
      "n_rodada": 31,
      "mandante": "Corinthians",
      "visitante": "Internacional",
      "gols_mandante": 1,
      "gols_visitante": 1
    },
    {
      "n_rodada": 31,
      "mandante": "Paraná",
      "visitante": "Flamengo",
      "gols_mandante": 0,
      "gols_visitante": 1
    },
    {
      "n_rodada": 31,
      "mandante": "Fluminense",
      "visitante": "São Paulo",
      "gols_mandante": 1,
      "gols_visitante": 1
    },
    {
      "n_rodada": 31,
      "mandante": "América-RN",
      "visitante": "Atlético-MG",
      "gols_mandante": 0,
      "gols_visitante": 1
    },
    {
      "n_rodada": 31,
      "mandante": "Santos",
      "visitante": "Palmeiras",
      "gols_mandante": 1,
      "gols_visitante": 1
    },
    {
      "n_rodada": 31,
      "mandante": "Grêmio",
      "visitante": "Goiás",
      "gols_mandante": 2,
      "gols_visitante": 1
    },
    {
      "n_rodada": 31,
      "mandante": "Vasco",
      "visitante": "Botafogo",
      "gols_mandante": 2,
      "gols_visitante": 1
    },
    {
      "n_rodada": 7,
      "mandante": "Vasco",
      "visitante": "Flamengo",
      "gols_mandante": 1,
      "gols_visitante": 2
    },
    {
      "n_rodada": 32,
      "mandante": "Palmeiras",
      "visitante": "Paraná",
      "gols_mandante": 3,
      "gols_visitante": 0
    },
    {
      "n_rodada": 32,
      "mandante": "Goiás",
      "visitante": "Fluminense",
      "gols_mandante": 5,
      "gols_visitante": 3
    },
    {
      "n_rodada": 32,
      "mandante": "Botafogo",
      "visitante": "Sport",
      "gols_mandante": 3,
      "gols_visitante": 1
    },
    {
      "n_rodada": 32,
      "mandante": "Náutico",
      "visitante": "Corinthians",
      "gols_mandante": 1,
      "gols_visitante": 0
    },
    {
      "n_rodada": 32,
      "mandante": "Atlético-MG",
      "visitante": "Vasco",
      "gols_mandante": 1,
      "gols_visitante": 0
    },
    {
      "n_rodada": 32,
      "mandante": "São Paulo",
      "visitante": "Cruzeiro",
      "gols_mandante": 1,
      "gols_visitante": 0
    },
    {
      "n_rodada": 32,
      "mandante": "Atlético-PR",
      "visitante": "América-RN",
      "gols_mandante": 2,
      "gols_visitante": 0
    },
    {
      "n_rodada": 32,
      "mandante": "Figueirense",
      "visitante": "Santos",
      "gols_mandante": 1,
      "gols_visitante": 0
    },
    {
      "n_rodada": 32,
      "mandante": "Internacional",
      "visitante": "Juventude",
      "gols_mandante": 3,
      "gols_visitante": 0
    },
    {
      "n_rodada": 32,
      "mandante": "Flamengo",
      "visitante": "Grêmio",
      "gols_mandante": 2,
      "gols_visitante": 0
    },
    {
      "n_rodada": 33,
      "mandante": "Fluminense",
      "visitante": "Atlético-MG",
      "gols_mandante": 1,
      "gols_visitante": 1
    },
    {
      "n_rodada": 33,
      "mandante": "Cruzeiro",
      "visitante": "Atlético-PR",
      "gols_mandante": 1,
      "gols_visitante": 1
    },
    {
      "n_rodada": 33,
      "mandante": "Santos",
      "visitante": "Goiás",
      "gols_mandante": 3,
      "gols_visitante": 0
    },
    {
      "n_rodada": 33,
      "mandante": "Sport",
      "visitante": "São Paulo",
      "gols_mandante": 1,
      "gols_visitante": 2
    },
    {
      "n_rodada": 33,
      "mandante": "América-RN",
      "visitante": "Flamengo",
      "gols_mandante": 0,
      "gols_visitante": 1
    },
    {
      "n_rodada": 33,
      "mandante": "Grêmio",
      "visitante": "Náutico",
      "gols_mandante": 4,
      "gols_visitante": 3
    },
    {
      "n_rodada": 33,
      "mandante": "Corinthians",
      "visitante": "Figueirense",
      "gols_mandante": 2,
      "gols_visitante": 1
    },
    {
      "n_rodada": 33,
      "mandante": "Paraná",
      "visitante": "Internacional",
      "gols_mandante": 1,
      "gols_visitante": 0
    },
    {
      "n_rodada": 33,
      "mandante": "Juventude",
      "visitante": "Botafogo",
      "gols_mandante": 1,
      "gols_visitante": 1
    },
    {
      "n_rodada": 33,
      "mandante": "Vasco",
      "visitante": "Palmeiras",
      "gols_mandante": 2,
      "gols_visitante": 2
    },
    {
      "n_rodada": 34,
      "mandante": "Atlético-PR",
      "visitante": "Grêmio",
      "gols_mandante": 2,
      "gols_visitante": 0
    },
    {
      "n_rodada": 34,
      "mandante": "Figueirense",
      "visitante": "Fluminense",
      "gols_mandante": 0,
      "gols_visitante": 2
    },
    {
      "n_rodada": 34,
      "mandante": "Atlético-MG",
      "visitante": "Paraná",
      "gols_mandante": 0,
      "gols_visitante": 0
    },
    {
      "n_rodada": 34,
      "mandante": "Goiás",
      "visitante": "Vasco",
      "gols_mandante": 2,
      "gols_visitante": 3
    },
    {
      "n_rodada": 34,
      "mandante": "Náutico",
      "visitante": "Santos",
      "gols_mandante": 1,
      "gols_visitante": 2
    },
    {
      "n_rodada": 34,
      "mandante": "Flamengo",
      "visitante": "Corinthians",
      "gols_mandante": 2,
      "gols_visitante": 1
    },
    {
      "n_rodada": 34,
      "mandante": "São Paulo",
      "visitante": "América-RN",
      "gols_mandante": 3,
      "gols_visitante": 0
    },
    {
      "n_rodada": 34,
      "mandante": "Botafogo",
      "visitante": "Cruzeiro",
      "gols_mandante": 4,
      "gols_visitante": 1
    },
    {
      "n_rodada": 34,
      "mandante": "Palmeiras",
      "visitante": "Juventude",
      "gols_mandante": 0,
      "gols_visitante": 1
    },
    {
      "n_rodada": 34,
      "mandante": "Internacional",
      "visitante": "Sport",
      "gols_mandante": 0,
      "gols_visitante": 0
    },
    {
      "n_rodada": 35,
      "mandante": "Paraná",
      "visitante": "Goiás",
      "gols_mandante": 1,
      "gols_visitante": 0
    },
    {
      "n_rodada": 35,
      "mandante": "Fluminense",
      "visitante": "Náutico",
      "gols_mandante": 2,
      "gols_visitante": 1
    },
    {
      "n_rodada": 35,
      "mandante": "Grêmio",
      "visitante": "Figueirense",
      "gols_mandante": 1,
      "gols_visitante": 2
    },
    {
      "n_rodada": 35,
      "mandante": "Santos",
      "visitante": "Atlético-MG",
      "gols_mandante": 2,
      "gols_visitante": 2
    },
    {
      "n_rodada": 35,
      "mandante": "Cruzeiro",
      "visitante": "Flamengo",
      "gols_mandante": 3,
      "gols_visitante": 1
    },
    {
      "n_rodada": 35,
      "mandante": "Corinthians",
      "visitante": "Atlético-PR",
      "gols_mandante": 2,
      "gols_visitante": 2
    },
    {
      "n_rodada": 35,
      "mandante": "América-RN",
      "visitante": "Botafogo",
      "gols_mandante": 1,
      "gols_visitante": 1
    },
    {
      "n_rodada": 35,
      "mandante": "Sport",
      "visitante": "Palmeiras",
      "gols_mandante": 3,
      "gols_visitante": 1
    },
    {
      "n_rodada": 35,
      "mandante": "Vasco",
      "visitante": "Internacional",
      "gols_mandante": 1,
      "gols_visitante": 2
    },
    {
      "n_rodada": 35,
      "mandante": "Juventude",
      "visitante": "São Paulo",
      "gols_mandante": 2,
      "gols_visitante": 0
    },
    {
      "n_rodada": 36,
      "mandante": "Botafogo",
      "visitante": "Paraná",
      "gols_mandante": 3,
      "gols_visitante": 2
    },
    {
      "n_rodada": 36,
      "mandante": "Náutico",
      "visitante": "América-RN",
      "gols_mandante": 4,
      "gols_visitante": 0
    },
    {
      "n_rodada": 36,
      "mandante": "Internacional",
      "visitante": "Cruzeiro",
      "gols_mandante": 1,
      "gols_visitante": 0
    },
    {
      "n_rodada": 36,
      "mandante": "Goiás",
      "visitante": "Corinthians",
      "gols_mandante": 1,
      "gols_visitante": 1
    },
    {
      "n_rodada": 36,
      "mandante": "Figueirense",
      "visitante": "Vasco",
      "gols_mandante": 3,
      "gols_visitante": 3
    },
    {
      "n_rodada": 36,
      "mandante": "Atlético-PR",
      "visitante": "Sport",
      "gols_mandante": 0,
      "gols_visitante": 0
    },
    {
      "n_rodada": 36,
      "mandante": "Atlético-MG",
      "visitante": "Juventude",
      "gols_mandante": 4,
      "gols_visitante": 1
    },
    {
      "n_rodada": 36,
      "mandante": "São Paulo",
      "visitante": "Grêmio",
      "gols_mandante": 1,
      "gols_visitante": 0
    },
    {
      "n_rodada": 36,
      "mandante": "Flamengo",
      "visitante": "Santos",
      "gols_mandante": 1,
      "gols_visitante": 0
    },
    {
      "n_rodada": 36,
      "mandante": "Palmeiras",
      "visitante": "Fluminense",
      "gols_mandante": 1,
      "gols_visitante": 0
    },
    {
      "n_rodada": 37,
      "mandante": "América-RN",
      "visitante": "Grêmio",
      "gols_mandante": 0,
      "gols_visitante": 3
    },
    {
      "n_rodada": 37,
      "mandante": "Fluminense",
      "visitante": "Juventude",
      "gols_mandante": 3,
      "gols_visitante": 2
    },
    {
      "n_rodada": 37,
      "mandante": "São Paulo",
      "visitante": "Botafogo",
      "gols_mandante": 2,
      "gols_visitante": 2
    },
    {
      "n_rodada": 37,
      "mandante": "Internacional",
      "visitante": "Palmeiras",
      "gols_mandante": 2,
      "gols_visitante": 1
    },
    {
      "n_rodada": 37,
      "mandante": "Paraná",
      "visitante": "Santos",
      "gols_mandante": 2,
      "gols_visitante": 3
    },
    {
      "n_rodada": 37,
      "mandante": "Sport",
      "visitante": "Cruzeiro",
      "gols_mandante": 1,
      "gols_visitante": 0
    },
    {
      "n_rodada": 37,
      "mandante": "Flamengo",
      "visitante": "Atlético-PR",
      "gols_mandante": 2,
      "gols_visitante": 0
    },
    {
      "n_rodada": 37,
      "mandante": "Atlético-MG",
      "visitante": "Goiás",
      "gols_mandante": 4,
      "gols_visitante": 1
    },
    {
      "n_rodada": 37,
      "mandante": "Figueirense",
      "visitante": "Náutico",
      "gols_mandante": 2,
      "gols_visitante": 0
    },
    {
      "n_rodada": 37,
      "mandante": "Corinthians",
      "visitante": "Vasco",
      "gols_mandante": 0,
      "gols_visitante": 1
    },
    {
      "n_rodada": 38,
      "mandante": "Atlético-PR",
      "visitante": "São Paulo",
      "gols_mandante": 2,
      "gols_visitante": 1
    },
    {
      "n_rodada": 38,
      "mandante": "Santos",
      "visitante": "Fluminense",
      "gols_mandante": 2,
      "gols_visitante": 4
    },
    {
      "n_rodada": 38,
      "mandante": "Náutico",
      "visitante": "Flamengo",
      "gols_mandante": 1,
      "gols_visitante": 0
    },
    {
      "n_rodada": 38,
      "mandante": "Palmeiras",
      "visitante": "Atlético-MG",
      "gols_mandante": 1,
      "gols_visitante": 3
    },
    {
      "n_rodada": 38,
      "mandante": "Cruzeiro",
      "visitante": "América-RN",
      "gols_mandante": 2,
      "gols_visitante": 0
    },
    {
      "n_rodada": 38,
      "mandante": "Grêmio",
      "visitante": "Corinthians",
      "gols_mandante": 1,
      "gols_visitante": 1
    },
    {
      "n_rodada": 38,
      "mandante": "Goiás",
      "visitante": "Internacional",
      "gols_mandante": 2,
      "gols_visitante": 1
    },
    {
      "n_rodada": 38,
      "mandante": "Vasco",
      "visitante": "Paraná",
      "gols_mandante": 3,
      "gols_visitante": 0
    },
    {
      "n_rodada": 38,
      "mandante": "Botafogo",
      "visitante": "Figueirense",
      "gols_mandante": 1,
      "gols_visitante": 1
    },
    {
      "n_rodada": 38,
      "mandante": "Juventude",
      "visitante": "Sport",
      "gols_mandante": 2,
      "gols_visitante": 1
    },
    {
      "n_rodada": 22,
      "mandante": "Paraná",
      "visitante": "Cruzeiro",
      "gols_mandante": 2,
      "gols_visitante": 2
    },
    {
      "n_rodada": 22,
      "mandante": "Juventude",
      "visitante": "Goiás",
      "gols_mandante": 2,
      "gols_visitante": 0
    },
    {
      "n_rodada": 22,
      "mandante": "Botafogo",
      "visitante": "Flamengo",
      "gols_mandante": 1,
      "gols_visitante": 1
    },
    {
      "n_rodada": 22,
      "mandante": "Figueirense",
      "visitante": "América-RN",
      "gols_mandante": 3,
      "gols_visitante": 1
    },
    {
      "n_rodada": 22,
      "mandante": "Palmeiras",
      "visitante": "São Paulo",
      "gols_mandante": 0,
      "gols_visitante": 1
    },
    {
      "n_rodada": 22,
      "mandante": "Atlético-MG",
      "visitante": "Corinthians",
      "gols_mandante": 5,
      "gols_visitante": 2
    },
    {
      "n_rodada": 22,
      "mandante": "Sport",
      "visitante": "Grêmio",
      "gols_mandante": 2,
      "gols_visitante": 0
    },
    {
      "n_rodada": 22,
      "mandante": "Internacional",
      "visitante": "Fluminense",
      "gols_mandante": 1,
      "gols_visitante": 4
    },
    {
      "n_rodada": 22,
      "mandante": "Santos",
      "visitante": "Atlético-PR",
      "gols_mandante": 3,
      "gols_visitante": 1
    },
    {
      "n_rodada": 22,
      "mandante": "Vasco",
      "visitante": "Náutico",
      "gols_mandante": 4,
      "gols_visitante": 1
    },
    {
      "n_rodada": 23,
      "mandante": "São Paulo",
      "visitante": "Paraná",
      "gols_mandante": 6,
      "gols_visitante": 0
    },
    {
      "n_rodada": 23,
      "mandante": "Flamengo",
      "visitante": "Sport",
      "gols_mandante": 1,
      "gols_visitante": 1
    },
    {
      "n_rodada": 23,
      "mandante": "América-RN",
      "visitante": "Juventude",
      "gols_mandante": 0,
      "gols_visitante": 3
    },
    {
      "n_rodada": 23,
      "mandante": "Corinthians",
      "visitante": "Santos",
      "gols_mandante": 2,
      "gols_visitante": 0
    },
    {
      "n_rodada": 23,
      "mandante": "Cruzeiro",
      "visitante": "Palmeiras",
      "gols_mandante": 5,
      "gols_visitante": 0
    },
    {
      "n_rodada": 23,
      "mandante": "Atlético-PR",
      "visitante": "Atlético-MG",
      "gols_mandante": 1,
      "gols_visitante": 0
    },
    {
      "n_rodada": 23,
      "mandante": "Grêmio",
      "visitante": "Botafogo",
      "gols_mandante": 3,
      "gols_visitante": 0
    },
    {
      "n_rodada": 23,
      "mandante": "Goiás",
      "visitante": "Figueirense",
      "gols_mandante": 2,
      "gols_visitante": 1
    },
    {
      "n_rodada": 23,
      "mandante": "Fluminense",
      "visitante": "Vasco",
      "gols_mandante": 1,
      "gols_visitante": 1
    },
    {
      "n_rodada": 23,
      "mandante": "Náutico",
      "visitante": "Internacional",
      "gols_mandante": 1,
      "gols_visitante": 1
    },
    {
      "n_rodada": 24,
      "mandante": "Corinthians",
      "visitante": "América-RN",
      "gols_mandante": 1,
      "gols_visitante": 0
    },
    {
      "n_rodada": 24,
      "mandante": "Goiás",
      "visitante": "Atlético-PR",
      "gols_mandante": 2,
      "gols_visitante": 3
    },
    {
      "n_rodada": 24,
      "mandante": "Flamengo",
      "visitante": "Figueirense",
      "gols_mandante": 4,
      "gols_visitante": 1
    },
    {
      "n_rodada": 24,
      "mandante": "Juventude",
      "visitante": "Cruzeiro",
      "gols_mandante": 1,
      "gols_visitante": 0
    },
    {
      "n_rodada": 24,
      "mandante": "Santos",
      "visitante": "Internacional",
      "gols_mandante": 2,
      "gols_visitante": 1
    },
    {
      "n_rodada": 24,
      "mandante": "Atlético-MG",
      "visitante": "São Paulo",
      "gols_mandante": 0,
      "gols_visitante": 0
    },
    {
      "n_rodada": 24,
      "mandante": "Grêmio",
      "visitante": "Vasco",
      "gols_mandante": 3,
      "gols_visitante": 1
    },
    {
      "n_rodada": 24,
      "mandante": "Paraná",
      "visitante": "Náutico",
      "gols_mandante": 2,
      "gols_visitante": 4
    },
    {
      "n_rodada": 24,
      "mandante": "Botafogo",
      "visitante": "Palmeiras",
      "gols_mandante": 1,
      "gols_visitante": 1
    },
    {
      "n_rodada": 24,
      "mandante": "Sport",
      "visitante": "Fluminense",
      "gols_mandante": 0,
      "gols_visitante": 2
    },
    {
      "n_rodada": 25,
      "mandante": "Figueirense",
      "visitante": "Atlético-MG",
      "gols_mandante": 2,
      "gols_visitante": 1
    },
    {
      "n_rodada": 25,
      "mandante": "Internacional",
      "visitante": "Flamengo",
      "gols_mandante": 3,
      "gols_visitante": 0
    },
    {
      "n_rodada": 25,
      "mandante": "Vasco",
      "visitante": "São Paulo",
      "gols_mandante": 0,
      "gols_visitante": 2
    },
    {
      "n_rodada": 25,
      "mandante": "Cruzeiro",
      "visitante": "Grêmio",
      "gols_mandante": 2,
      "gols_visitante": 0
    },
    {
      "n_rodada": 25,
      "mandante": "Santos",
      "visitante": "Juventude",
      "gols_mandante": 1,
      "gols_visitante": 0
    },
    {
      "n_rodada": 25,
      "mandante": "Paraná",
      "visitante": "Corinthians",
      "gols_mandante": 1,
      "gols_visitante": 0
    },
    {
      "n_rodada": 25,
      "mandante": "Fluminense",
      "visitante": "Atlético-PR",
      "gols_mandante": 2,
      "gols_visitante": 0
    },
    {
      "n_rodada": 25,
      "mandante": "América-RN",
      "visitante": "Sport",
      "gols_mandante": 1,
      "gols_visitante": 1
    },
    {
      "n_rodada": 25,
      "mandante": "Palmeiras",
      "visitante": "Goiás",
      "gols_mandante": 2,
      "gols_visitante": 0
    },
    {
      "n_rodada": 25,
      "mandante": "Náutico",
      "visitante": "Botafogo",
      "gols_mandante": 4,
      "gols_visitante": 1
    },
    {
      "n_rodada": 16,
      "mandante": "Flamengo",
      "visitante": "Cruzeiro",
      "gols_mandante": 3,
      "gols_visitante": 1
    },
    {
      "n_rodada": 26,
      "mandante": "Goiás",
      "visitante": "Náutico",
      "gols_mandante": 0,
      "gols_visitante": 3
    },
    {
      "n_rodada": 26,
      "mandante": "Fluminense",
      "visitante": "América-RN",
      "gols_mandante": 2,
      "gols_visitante": 0
    },
    {
      "n_rodada": 26,
      "mandante": "São Paulo",
      "visitante": "Santos",
      "gols_mandante": 2,
      "gols_visitante": 1
    },
    {
      "n_rodada": 26,
      "mandante": "Corinthians",
      "visitante": "Botafogo",
      "gols_mandante": 0,
      "gols_visitante": 1
    },
    {
      "n_rodada": 26,
      "mandante": "Atlético-PR",
      "visitante": "Palmeiras",
      "gols_mandante": 2,
      "gols_visitante": 1
    },
    {
      "n_rodada": 26,
      "mandante": "Sport",
      "visitante": "Paraná",
      "gols_mandante": 3,
      "gols_visitante": 1
    },
    {
      "n_rodada": 26,
      "mandante": "Atlético-MG",
      "visitante": "Cruzeiro",
      "gols_mandante": 3,
      "gols_visitante": 4
    },
    {
      "n_rodada": 26,
      "mandante": "Figueirense",
      "visitante": "Juventude",
      "gols_mandante": 4,
      "gols_visitante": 1
    },
    {
      "n_rodada": 26,
      "mandante": "Flamengo",
      "visitante": "Vasco",
      "gols_mandante": 1,
      "gols_visitante": 1
    },
    {
      "n_rodada": 26,
      "mandante": "Grêmio",
      "visitante": "Internacional",
      "gols_mandante": 1,
      "gols_visitante": 0
    },
    {
      "n_rodada": 27,
      "mandante": "Grêmio",
      "visitante": "Santos",
      "gols_mandante": 1,
      "gols_visitante": 0
    },
    {
      "n_rodada": 27,
      "mandante": "São Paulo",
      "visitante": "Figueirense",
      "gols_mandante": 2,
      "gols_visitante": 0
    },
    {
      "n_rodada": 27,
      "mandante": "Goiás",
      "visitante": "América-RN",
      "gols_mandante": 1,
      "gols_visitante": 1
    },
    {
      "n_rodada": 27,
      "mandante": "Juventude",
      "visitante": "Flamengo",
      "gols_mandante": 2,
      "gols_visitante": 2
    },
    {
      "n_rodada": 27,
      "mandante": "Náutico",
      "visitante": "Sport",
      "gols_mandante": 2,
      "gols_visitante": 0
    },
    {
      "n_rodada": 27,
      "mandante": "Palmeiras",
      "visitante": "Corinthians",
      "gols_mandante": 1,
      "gols_visitante": 0
    },
    {
      "n_rodada": 27,
      "mandante": "Atlético-MG",
      "visitante": "Internacional",
      "gols_mandante": 2,
      "gols_visitante": 2
    },
    {
      "n_rodada": 27,
      "mandante": "Atlético-PR",
      "visitante": "Paraná",
      "gols_mandante": 2,
      "gols_visitante": 1
    },
    {
      "n_rodada": 27,
      "mandante": "Botafogo",
      "visitante": "Fluminense",
      "gols_mandante": 0,
      "gols_visitante": 2
    },
    {
      "n_rodada": 27,
      "mandante": "Vasco",
      "visitante": "Cruzeiro",
      "gols_mandante": 0,
      "gols_visitante": 2
    },
    {
      "n_rodada": 28,
      "mandante": "Náutico",
      "visitante": "Atlético-PR",
      "gols_mandante": 5,
      "gols_visitante": 0
    },
    {
      "n_rodada": 28,
      "mandante": "Corinthians",
      "visitante": "Sport",
      "gols_mandante": 1,
      "gols_visitante": 2
    },
    {
      "n_rodada": 28,
      "mandante": "Flamengo",
      "visitante": "Atlético-MG",
      "gols_mandante": 1,
      "gols_visitante": 0
    },
    {
      "n_rodada": 28,
      "mandante": "Santos",
      "visitante": "Vasco",
      "gols_mandante": 1,
      "gols_visitante": 0
    },
    {
      "n_rodada": 28,
      "mandante": "Botafogo",
      "visitante": "Goiás",
      "gols_mandante": 0,
      "gols_visitante": 3
    },
    {
      "n_rodada": 28,
      "mandante": "Internacional",
      "visitante": "São Paulo",
      "gols_mandante": 1,
      "gols_visitante": 2
    },
    {
      "n_rodada": 28,
      "mandante": "Juventude",
      "visitante": "Grêmio",
      "gols_mandante": 1,
      "gols_visitante": 2
    },
    {
      "n_rodada": 28,
      "mandante": "Cruzeiro",
      "visitante": "Figueirense",
      "gols_mandante": 1,
      "gols_visitante": 2
    },
    {
      "n_rodada": 28,
      "mandante": "América-RN",
      "visitante": "Palmeiras",
      "gols_mandante": 0,
      "gols_visitante": 0
    },
    {
      "n_rodada": 28,
      "mandante": "Paraná",
      "visitante": "Fluminense",
      "gols_mandante": 3,
      "gols_visitante": 1
    },
    {
      "n_rodada": 29,
      "mandante": "Sport",
      "visitante": "Goiás",
      "gols_mandante": 4,
      "gols_visitante": 0
    },
    {
      "n_rodada": 29,
      "mandante": "Palmeiras",
      "visitante": "Náutico",
      "gols_mandante": 2,
      "gols_visitante": 1
    },
    {
      "n_rodada": 29,
      "mandante": "Grêmio",
      "visitante": "Atlético-MG",
      "gols_mandante": 2,
      "gols_visitante": 2
    },
    {
      "n_rodada": 29,
      "mandante": "Vasco",
      "visitante": "Juventude",
      "gols_mandante": 0,
      "gols_visitante": 1
    },
    {
      "n_rodada": 29,
      "mandante": "Atlético-PR",
      "visitante": "Botafogo",
      "gols_mandante": 2,
      "gols_visitante": 0
    },
    {
      "n_rodada": 29,
      "mandante": "Fluminense",
      "visitante": "Corinthians",
      "gols_mandante": 1,
      "gols_visitante": 1
    },
    {
      "n_rodada": 29,
      "mandante": "Cruzeiro",
      "visitante": "Santos",
      "gols_mandante": 0,
      "gols_visitante": 1
    },
    {
      "n_rodada": 29,
      "mandante": "América-RN",
      "visitante": "Paraná",
      "gols_mandante": 3,
      "gols_visitante": 2
    },
    {
      "n_rodada": 29,
      "mandante": "Figueirense",
      "visitante": "Internacional",
      "gols_mandante": 0,
      "gols_visitante": 0
    },
    {
      "n_rodada": 10,
      "mandante": "Flamengo",
      "visitante": "São Paulo",
      "gols_mandante": 1,
      "gols_visitante": 0
    }
  ]
}
